0	0
0.01	2.8694e-06
0.02	2.2889e-05
0.03	6.4442e-05
0.04	0.00012716
0.05	0.00021019
0.06	0.00031268
0.07	0.00043377
0.08	0.00057268
0.09	0.00072864
0.1	0.00090091
0.11	0.0010888
0.12	0.0012916
0.13	0.0015087
0.14	0.0017395
0.15	0.0019834
0.16	0.0022398
0.17	0.0025081
0.18	0.002788
0.19	0.0030788
0.2	0.0033801
0.21	0.0036914
0.22	0.0040123
0.23	0.0043425
0.24	0.0046814
0.25	0.0050287
0.26	0.005384
0.27	0.005747
0.28	0.0061174
0.29	0.0064948
0.3	0.006879
0.31	0.0072695
0.32	0.0076663
0.33	0.0080689
0.34	0.0084771
0.35	0.0088907
0.36	0.0093094
0.37	0.009733
0.38	0.010161
0.39	0.010594
0.4	0.011031
0.41	0.011473
0.42	0.011918
0.43	0.012367
0.44	0.012819
0.45	0.013275
0.46	0.013734
0.47	0.014196
0.48	0.014661
0.49	0.015129
0.5	0.0156
0.51	0.016074
0.52	0.016549
0.53	0.017028
0.54	0.017508
0.55	0.017991
0.56	0.018475
0.57	0.018962
0.58	0.01945
0.59	0.019941
0.6	0.020433
0.61	0.020926
0.62	0.021421
0.63	0.021918
0.64	0.022416
0.65	0.022915
0.66	0.023416
0.67	0.023918
0.68	0.024421
0.69	0.024925
0.7	0.02543
0.71	0.025936
0.72	0.026443
0.73	0.026951
0.74	0.02746
0.75	0.027969
0.76	0.02848
0.77	0.028991
0.78	0.029502
0.79	0.030015
0.8	0.030528
0.81	0.031042
0.82	0.031556
0.83	0.032071
0.84	0.032586
0.85	0.033102
0.86	0.033618
0.87	0.034134
0.88	0.034651
0.89	0.035169
0.9	0.035686
0.91	0.036204
0.92	0.036723
0.93	0.037241
0.94	0.03776
0.95	0.038279
0.96	0.038799
0.97	0.039318
0.98	0.039838
0.99	0.040358
1	0.040878
1.01	0.041399
1.02	0.041919
1.03	0.04244
1.04	0.042961
1.05	0.043482
1.06	0.044003
1.07	0.044524
1.08	0.045045
1.09	0.045566
1.1	0.046088
1.11	0.046609
1.12	0.047131
1.13	0.047652
1.14	0.048174
1.15	0.048696
1.16	0.049217
1.17	0.049739
1.18	0.05026
1.19	0.050782
1.2	0.051304
1.21	0.051826
1.22	0.052347
1.23	0.052869
1.24	0.05339
1.25	0.053912
1.26	0.054434
1.27	0.054955
1.28	0.055477
1.29	0.055998
1.3	0.05652
1.31	0.057041
1.32	0.057563
1.33	0.058084
1.34	0.058605
1.35	0.059126
1.36	0.059648
1.37	0.060169
1.38	0.06069
1.39	0.061211
1.4	0.061732
1.41	0.062253
1.42	0.062773
1.43	0.063294
1.44	0.063815
1.45	0.064335
1.46	0.064856
1.47	0.065376
1.48	0.065897
1.49	0.066417
1.5	0.066937
1.51	0.067457
1.52	0.067977
1.53	0.068497
1.54	0.069017
1.55	0.069537
1.56	0.070057
1.57	0.070576
1.58	0.071096
1.59	0.071615
1.6	0.072135
1.61	0.072654
1.62	0.073173
1.63	0.073692
1.64	0.074211
1.65	0.07473
1.66	0.075249
1.67	0.075768
1.68	0.076287
1.69	0.076805
1.7	0.077324
1.71	0.077842
1.72	0.07836
1.73	0.078879
1.74	0.079397
1.75	0.079915
1.76	0.080433
1.77	0.080951
1.78	0.081469
1.79	0.081986
1.8	0.082504
1.81	0.083022
1.82	0.083539
1.83	0.084056
1.84	0.084574
1.85	0.085091
1.86	0.085608
1.87	0.086125
1.88	0.086642
1.89	0.087159
1.9	0.087676
1.91	0.088192
1.92	0.088709
1.93	0.089225
1.94	0.089742
1.95	0.090258
1.96	0.090774
1.97	0.091291
1.98	0.091807
1.99	0.092323
2	0.092838
2.01	0.093349
2.02	0.093824
2.03	0.094257
2.04	0.094647
2.05	0.094996
2.06	0.095307
2.07	0.09558
2.08	0.095817
2.09	0.096021
2.1	0.096191
2.11	0.096331
2.12	0.09644
2.13	0.09652
2.14	0.096574
2.15	0.096601
2.16	0.096602
2.17	0.09658
2.18	0.096535
2.19	0.096468
2.2	0.09638
2.21	0.096271
2.22	0.096143
2.23	0.095997
2.24	0.095833
2.25	0.095653
2.26	0.095456
2.27	0.095244
2.28	0.095017
2.29	0.094775
2.3	0.094521
2.31	0.094253
2.32	0.093973
2.33	0.093681
2.34	0.093378
2.35	0.093064
2.36	0.09274
2.37	0.092405
2.38	0.092062
2.39	0.091709
2.4	0.091348
2.41	0.090978
2.42	0.0906
2.43	0.090215
2.44	0.089823
2.45	0.089424
2.46	0.089018
2.47	0.088606
2.48	0.088188
2.49	0.087764
2.5	0.087334
2.51	0.0869
2.52	0.08646
2.53	0.086016
2.54	0.085567
2.55	0.085113
2.56	0.084656
2.57	0.084194
2.58	0.083729
2.59	0.08326
2.6	0.082788
2.61	0.082312
2.62	0.081833
2.63	0.081351
2.64	0.080867
2.65	0.080379
2.66	0.079889
2.67	0.079397
2.68	0.078902
2.69	0.078404
2.7	0.077905
2.71	0.077404
2.72	0.076901
2.73	0.076395
2.74	0.075889
2.75	0.07538
2.76	0.07487
2.77	0.074358
2.78	0.073845
2.79	0.07333
2.8	0.072815
2.81	0.072298
2.82	0.071779
2.83	0.07126
2.84	0.07074
2.85	0.070218
2.86	0.069696
2.87	0.069173
2.88	0.068649
2.89	0.068124
2.9	0.067598
2.91	0.067072
2.92	0.066545
2.93	0.066017
2.94	0.065489
2.95	0.06496
2.96	0.064431
2.97	0.063901
2.98	0.063371
2.99	0.06284
3	0.062309
3.01	0.061777
3.02	0.061245
3.03	0.060713
3.04	0.06018
3.05	0.059648
3.06	0.059114
3.07	0.058581
3.08	0.058048
3.09	0.057514
3.1	0.05698
3.11	0.056446
3.12	0.055911
3.13	0.055377
3.14	0.054842
3.15	0.054308
3.16	0.053773
3.17	0.053238
3.18	0.052703
3.19	0.052168
3.2	0.051633
3.21	0.051098
3.22	0.050563
3.23	0.050027
3.24	0.049492
3.25	0.048957
3.26	0.048422
3.27	0.047887
3.28	0.047352
3.29	0.046817
3.3	0.046281
3.31	0.045746
3.32	0.045211
3.33	0.044677
3.34	0.044142
3.35	0.043607
3.36	0.043072
3.37	0.042537
3.38	0.042003
3.39	0.041468
3.4	0.040934
3.41	0.0404
3.42	0.039865
3.43	0.039331
3.44	0.038797
3.45	0.038263
3.46	0.037729
3.47	0.037196
3.48	0.036662
3.49	0.036129
3.5	0.035595
3.51	0.035062
3.52	0.034529
3.53	0.033996
3.54	0.033463
3.55	0.03293
3.56	0.032398
3.57	0.031865
3.58	0.031333
3.59	0.0308
3.6	0.030268
3.61	0.029736
3.62	0.029205
3.63	0.028673
3.64	0.028141
3.65	0.02761
3.66	0.027079
3.67	0.026547
3.68	0.026016
3.69	0.025486
3.7	0.024955
3.71	0.024424
3.72	0.023894
3.73	0.023364
3.74	0.022833
3.75	0.022303
3.76	0.021774
3.77	0.021244
3.78	0.020714
3.79	0.020185
3.8	0.019655
3.81	0.019126
3.82	0.018597
3.83	0.018068
3.84	0.01754
3.85	0.017011
3.86	0.016483
3.87	0.015954
3.88	0.015426
3.89	0.014898
3.9	0.01437
3.91	0.013843
3.92	0.013315
3.93	0.012788
3.94	0.01226
3.95	0.011733
3.96	0.011206
3.97	0.010679
3.98	0.010152
3.99	0.0096258
4	0.0090993
4.01	0.008573
4.02	0.0080468
4.03	0.0075207
4.04	0.0069948
4.05	0.006469
4.06	0.0059434
4.07	0.0054178
4.08	0.0048924
4.09	0.0043672
4.1	0.0038421
4.11	0.0033171
4.12	0.0027922
4.13	0.0022675
4.14	0.0017429
4.15	0.0012184
4.16	0.00069409
4.17	0.00016988
4.18	-0.00035419
4.19	-0.00087814
4.2	-0.001402
4.21	-0.0019257
4.22	-0.0024492
4.23	-0.0029727
4.24	-0.003496
4.25	-0.0040192
4.26	-0.0045422
4.27	-0.0050652
4.28	-0.005588
4.29	-0.0061107
4.3	-0.0066333
4.31	-0.0071557
4.32	-0.0076781
4.33	-0.0082003
4.34	-0.0087224
4.35	-0.0092443
4.36	-0.0097662
4.37	-0.010288
4.38	-0.01081
4.39	-0.011331
4.4	-0.011852
4.41	-0.012374
4.42	-0.012895
4.43	-0.013416
4.44	-0.013937
4.45	-0.014458
4.46	-0.014978
4.47	-0.015499
4.48	-0.016019
4.49	-0.01654
4.5	-0.01706
4.51	-0.01758
4.52	-0.0181
4.53	-0.01862
4.54	-0.01914
4.55	-0.01966
4.56	-0.020179
4.57	-0.020699
4.58	-0.021218
4.59	-0.021738
4.6	-0.022257
4.61	-0.022776
4.62	-0.023295
4.63	-0.023814
4.64	-0.024332
4.65	-0.024851
4.66	-0.02537
4.67	-0.025888
4.68	-0.026406
4.69	-0.026925
4.7	-0.027443
4.71	-0.027961
4.72	-0.028479
4.73	-0.028997
4.74	-0.029515
4.75	-0.030032
4.76	-0.03055
4.77	-0.031067
4.78	-0.031585
4.79	-0.032102
4.8	-0.032619
4.81	-0.033136
4.82	-0.033653
4.83	-0.03417
4.84	-0.034687
4.85	-0.035204
4.86	-0.03572
4.87	-0.036237
4.88	-0.036753
4.89	-0.03727
4.9	-0.037786
4.91	-0.038302
4.92	-0.038818
4.93	-0.039334
4.94	-0.03985
4.95	-0.040366
4.96	-0.040882
4.97	-0.041398
4.98	-0.041913
4.99	-0.042429
5	-0.042944
5.01	-0.043459
5.02	-0.043975
5.03	-0.04449
5.04	-0.045005
5.05	-0.04552
5.06	-0.046035
5.07	-0.04655
5.08	-0.047064
5.09	-0.047579
5.1	-0.048094
5.11	-0.048608
5.12	-0.049123
5.13	-0.049637
5.14	-0.050151
5.15	-0.050666
5.16	-0.05118
5.17	-0.051694
5.18	-0.052208
5.19	-0.052722
5.2	-0.053235
5.21	-0.053749
5.22	-0.054263
5.23	-0.054776
5.24	-0.05529
5.25	-0.055803
5.26	-0.056317
5.27	-0.05683
5.28	-0.057343
5.29	-0.057856
5.3	-0.05837
5.31	-0.058883
5.32	-0.059395
5.33	-0.059908
5.34	-0.060421
5.35	-0.060934
5.36	-0.061447
5.37	-0.061959
5.38	-0.062472
5.39	-0.062984
5.4	-0.063496
5.41	-0.064009
5.42	-0.064521
5.43	-0.065033
5.44	-0.065545
5.45	-0.066057
5.46	-0.066569
5.47	-0.067081
5.48	-0.067593
5.49	-0.068105
5.5	-0.068617
5.51	-0.069128
5.52	-0.06964
5.53	-0.070151
5.54	-0.070663
5.55	-0.071174
5.56	-0.071686
5.57	-0.072197
5.58	-0.072708
5.59	-0.073219
5.6	-0.07373
5.61	-0.074241
5.62	-0.074752
5.63	-0.075263
5.64	-0.075774
5.65	-0.076285
5.66	-0.076796
5.67	-0.077306
5.68	-0.077817
5.69	-0.078328
5.7	-0.078838
5.71	-0.079349
5.72	-0.079859
5.73	-0.080369
5.74	-0.08088
5.75	-0.08139
5.76	-0.0819
5.77	-0.08241
5.78	-0.08292
5.79	-0.08343
5.8	-0.08394
5.81	-0.08445
5.82	-0.08496
5.83	-0.08547
5.84	-0.085979
5.85	-0.086489
5.86	-0.086999
5.87	-0.087508
5.88	-0.088018
5.89	-0.088527
5.9	-0.089037
5.91	-0.089546
5.92	-0.090055
5.93	-0.090565
5.94	-0.091074
5.95	-0.091583
5.96	-0.092092
5.97	-0.092601
5.98	-0.09311
5.99	-0.093619
6	-0.094128
6.01	-0.094631
6.02	-0.0951
6.03	-0.095526
6.04	-0.095909
6.05	-0.096251
6.06	-0.096555
6.07	-0.096821
6.08	-0.097052
6.09	-0.097249
6.1	-0.097413
6.11	-0.097545
6.12	-0.097648
6.13	-0.097722
6.14	-0.097769
6.15	-0.097789
6.16	-0.097785
6.17	-0.097756
6.18	-0.097704
6.19	-0.097631
6.2	-0.097536
6.21	-0.097422
6.22	-0.097288
6.23	-0.097135
6.24	-0.096965
6.25	-0.096778
6.26	-0.096575
6.27	-0.096357
6.28	-0.096124
6.29	-0.095877
6.3	-0.095616
6.31	-0.095342
6.32	-0.095056
6.33	-0.094759
6.34	-0.09445
6.35	-0.09413
6.36	-0.0938
6.37	-0.09346
6.38	-0.09311
6.39	-0.092752
6.4	-0.092385
6.41	-0.092009
6.42	-0.091626
6.43	-0.091236
6.44	-0.090838
6.45	-0.090433
6.46	-0.090022
6.47	-0.089604
6.48	-0.08918
6.49	-0.088751
6.5	-0.088316
6.51	-0.087876
6.52	-0.087431
6.53	-0.086982
6.54	-0.086527
6.55	-0.086069
6.56	-0.085606
6.57	-0.085139
6.58	-0.084669
6.59	-0.084195
6.6	-0.083717
6.61	-0.083237
6.62	-0.082753
6.63	-0.082266
6.64	-0.081776
6.65	-0.081284
6.66	-0.080789
6.67	-0.080291
6.68	-0.079791
6.69	-0.079289
6.7	-0.078785
6.71	-0.078279
6.72	-0.077771
6.73	-0.077261
6.74	-0.07675
6.75	-0.076236
6.76	-0.075721
6.77	-0.075205
6.78	-0.074687
6.79	-0.074168
6.8	-0.073648
6.81	-0.073126
6.82	-0.072603
6.83	-0.07208
6.84	-0.071555
6.85	-0.071029
6.86	-0.070502
6.87	-0.069975
6.88	-0.069446
6.89	-0.068917
6.9	-0.068387
6.91	-0.067856
6.92	-0.067325
6.93	-0.066793
6.94	-0.066261
6.95	-0.065728
6.96	-0.065194
6.97	-0.06466
6.98	-0.064126
6.99	-0.063591
7	-0.063055
7.01	-0.06252
7.02	-0.061984
7.03	-0.061448
7.04	-0.060911
7.05	-0.060374
7.06	-0.059837
7.07	-0.0593
7.08	-0.058762
7.09	-0.058225
7.1	-0.057687
7.11	-0.057149
7.12	-0.056611
7.13	-0.056072
7.14	-0.055534
7.15	-0.054995
7.16	-0.054457
7.17	-0.053918
7.18	-0.05338
7.19	-0.052841
7.2	-0.052302
7.21	-0.051763
7.22	-0.051225
7.23	-0.050686
7.24	-0.050147
7.25	-0.049608
7.26	-0.04907
7.27	-0.048531
7.28	-0.047992
7.29	-0.047454
7.3	-0.046915
7.31	-0.046377
7.32	-0.045838
7.33	-0.0453
7.34	-0.044761
7.35	-0.044223
7.36	-0.043685
7.37	-0.043147
7.38	-0.042609
7.39	-0.042071
7.4	-0.041534
7.41	-0.040996
7.42	-0.040459
7.43	-0.039921
7.44	-0.039384
7.45	-0.038847
7.46	-0.03831
7.47	-0.037773
7.48	-0.037236
7.49	-0.0367
7.5	-0.036163
7.51	-0.035627
7.52	-0.03509
7.53	-0.034554
7.54	-0.034018
7.55	-0.033483
7.56	-0.032947
7.57	-0.032412
7.58	-0.031876
7.59	-0.031341
7.6	-0.030806
7.61	-0.030271
7.62	-0.029736
7.63	-0.029202
7.64	-0.028667
7.65	-0.028133
7.66	-0.027599
7.67	-0.027065
7.68	-0.026531
7.69	-0.025997
7.7	-0.025464
7.71	-0.02493
7.72	-0.024397
7.73	-0.023864
7.74	-0.023331
7.75	-0.022799
7.76	-0.022266
7.77	-0.021734
7.78	-0.021201
7.79	-0.020669
7.8	-0.020137
7.81	-0.019605
7.82	-0.019074
7.83	-0.018542
7.84	-0.018011
7.85	-0.01748
7.86	-0.016949
7.87	-0.016418
7.88	-0.015887
7.89	-0.015357
7.9	-0.014826
7.91	-0.014296
7.92	-0.013766
7.93	-0.013236
7.94	-0.012706
7.95	-0.012177
7.96	-0.011647
7.97	-0.011118
7.98	-0.010589
7.99	-0.01006
8	-0.0095311
