0.099	18.777
0.1	18.71
0.101	18.643
0.102	18.576
0.103	18.509
0.104	18.442
0.105	18.375
0.106	18.308
0.107	18.241
0.108	18.174
0.109	18.108
0.11	18.041
0.111	17.974
0.112	17.907
0.113	17.841
0.114	17.774
0.115	17.707
0.116	17.641
0.117	17.574
0.118	17.508
0.119	17.442
0.12	17.375
0.121	17.309
0.122	17.243
0.123	17.177
0.124	17.111
0.125	17.045
0.126	16.98
0.127	16.914
0.128	16.849
0.129	16.783
0.13	16.718
0.131	16.652
0.132	16.587
0.133	16.522
0.134	16.457
0.135	16.393
0.136	16.328
0.137	16.263
0.138	16.199
0.139	16.134
0.14	16.07
0.141	16.006
0.142	15.942
0.143	15.878
0.144	15.815
0.145	15.751
0.146	15.687
0.147	15.624
0.148	15.561
0.149	15.498
0.15	15.435
0.151	15.372
0.152	15.31
0.153	15.247
0.154	15.185
0.155	15.123
0.156	15.06
0.157	14.999
0.158	14.937
0.159	14.875
0.16	14.814
0.161	14.753
0.162	14.691
0.163	14.63
0.164	14.57
0.165	14.509
0.166	14.449
0.167	14.388
0.168	14.328
0.169	14.268
0.17	14.208
0.171	14.149
0.172	14.089
0.173	14.03
0.174	13.971
0.175	13.912
0.176	13.853
0.177	13.794
0.178	13.736
0.179	13.677
0.18	13.619
0.181	13.561
0.182	13.503
0.183	13.446
0.184	13.388
0.185	13.331
0.186	13.274
0.187	13.217
0.188	13.161
0.189	13.104
0.19	13.048
0.191	12.991
0.192	12.935
0.193	12.88
0.194	12.824
0.195	12.769
0.196	12.713
0.197	12.658
0.198	12.603
0.199	12.549
0.2	12.494
0.201	12.44
0.202	12.386
0.203	12.332
0.204	12.278
0.205	12.224
0.206	12.171
0.207	12.118
0.208	12.065
0.209	12.012
0.21	11.959
0.211	11.907
0.212	11.855
0.213	11.802
0.214	11.751
0.215	11.699
0.216	11.647
0.217	11.596
0.218	11.545
0.219	11.494
0.22	11.443
0.221	11.393
0.222	11.342
0.223	11.292
0.224	11.242
0.225	11.192
0.226	11.143
0.227	11.093
0.228	11.044
0.229	10.995
0.23	10.946
0.231	10.897
0.232	10.849
0.233	10.8
0.234	10.752
0.235	10.704
0.236	10.657
0.237	10.609
0.238	10.562
0.239	10.515
0.24	10.468
0.241	10.421
0.242	10.374
0.243	10.328
0.244	10.281
0.245	10.235
0.246	10.19
0.247	10.144
0.248	10.098
0.249	10.053
0.25	10.008
0.251	9.963
0.252	9.9183
0.253	9.8737
0.254	9.8293
0.255	9.7851
0.256	9.7411
0.257	9.6973
0.258	9.6537
0.259	9.6102
0.26	9.5669
0.261	9.5239
0.262	9.4809
0.263	9.4382
0.264	9.3957
0.265	9.3533
0.266	9.3111
0.267	9.2691
0.268	9.2273
0.269	9.1857
0.27	9.1442
0.271	9.103
0.272	9.0619
0.273	9.0209
0.274	8.9802
0.275	8.9396
0.276	8.8993
0.277	8.859
0.278	8.819
0.279	8.7792
0.28	8.7395
0.281	8.7
0.282	8.6607
0.283	8.6215
0.284	8.5825
0.285	8.5437
0.286	8.5051
0.287	8.4666
0.288	8.4284
0.289	8.3903
0.29	8.3523
0.291	8.3146
0.292	8.277
0.293	8.2395
0.294	8.2023
0.295	8.1652
0.296	8.1283
0.297	8.0915
0.298	8.0549
0.299	8.0185
0.3	7.9823
0.301	7.9462
0.302	7.9103
0.303	7.8746
0.304	7.839
0.305	7.8036
0.306	7.7683
0.307	7.7332
0.308	7.6983
0.309	7.6636
0.31	7.629
0.311	7.5945
0.312	7.5603
0.313	7.5262
0.314	7.4922
0.315	7.4584
0.316	7.4248
0.317	7.3913
0.318	7.358
0.319	7.3248
0.32	7.2919
0.321	7.259
0.322	7.2263
0.323	7.1938
0.324	7.1614
0.325	7.1292
0.326	7.0972
0.327	7.0652
0.328	7.0335
0.329	7.0019
0.33	6.9704
0.331	6.9391
0.332	6.908
0.333	6.877
0.334	6.8462
0.335	6.8155
0.336	6.7849
0.337	6.7545
0.338	6.7243
0.339	6.6942
0.34	6.6642
0.341	6.6344
0.342	6.6048
0.343	6.5753
0.344	6.5459
0.345	6.5167
0.346	6.4876
0.347	6.4587
0.348	6.4299
0.349	6.4012
0.35	6.3727
0.351	6.3444
0.352	6.3161
0.353	6.288
0.354	6.2601
0.355	6.2323
0.356	6.2046
0.357	6.1771
0.358	6.1497
0.359	6.1225
0.36	6.0954
0.361	6.0684
0.362	6.0415
0.363	6.0148
0.364	5.9883
0.365	5.9618
0.366	5.9355
0.367	5.9093
0.368	5.8833
0.369	5.8574
0.37	5.8316
0.371	5.806
0.372	5.7805
0.373	5.7551
0.374	5.7298
0.375	5.7047
0.376	5.6797
0.377	5.6549
0.378	5.6301
0.379	5.6055
0.38	5.581
0.381	5.5567
0.382	5.5324
0.383	5.5083
0.384	5.4843
0.385	5.4605
0.386	5.4367
0.387	5.4131
0.388	5.3896
0.389	5.3663
0.39	5.343
0.391	5.3199
0.392	5.2969
0.393	5.274
0.394	5.2512
0.395	5.2286
0.396	5.206
0.397	5.1836
0.398	5.1613
0.399	5.1392
0.4	5.1171
0.401	5.0952
0.402	5.0733
0.403	5.0516
0.404	5.03
0.405	5.0085
0.406	4.9911
0.407	4.9772
0.408	4.9638
0.409	4.9504
0.41	4.9371
0.411	4.924
0.412	4.9109
0.413	4.898
0.414	4.8851
0.415	4.8724
0.416	4.8597
0.417	4.8471
0.418	4.8347
0.419	4.8223
0.42	4.81
0.421	4.7978
0.422	4.7857
0.423	4.7737
0.424	4.7618
0.425	4.75
0.426	4.7382
0.427	4.7266
0.428	4.715
0.429	4.7035
0.43	4.6921
0.431	4.6808
0.432	4.6696
0.433	4.6584
0.434	4.6474
0.435	4.6364
0.436	4.6255
0.437	4.6147
0.438	4.604
0.439	4.5933
0.44	4.5827
0.441	4.5722
0.442	4.5618
0.443	4.5514
0.444	4.5412
0.445	4.531
0.446	4.5208
0.447	4.5108
0.448	4.5008
0.449	4.4909
0.45	4.4811
0.451	4.4713
0.452	4.4616
0.453	4.452
0.454	4.4424
0.455	4.4329
0.456	4.4235
0.457	4.4142
0.458	4.4049
0.459	4.3957
0.46	4.3865
0.461	4.3774
0.462	4.3684
0.463	4.3594
0.464	4.3506
0.465	4.3417
0.466	4.333
0.467	4.3243
0.468	4.3156
0.469	4.307
0.47	4.2985
0.471	4.29
0.472	4.2816
0.473	4.2733
0.474	4.265
0.475	4.2568
0.476	4.2486
0.477	4.2405
0.478	4.2325
0.479	4.2245
0.48	4.2165
0.481	4.2086
0.482	4.2008
0.483	4.193
0.484	4.1853
0.485	4.1776
0.486	4.17
0.487	4.1625
0.488	4.1549
0.489	4.1475
0.49	4.1401
0.491	4.1327
0.492	4.1254
0.493	4.1182
0.494	4.111
0.495	4.1038
0.496	4.0967
0.497	4.0896
0.498	4.0826
0.499	4.0757
0.5	4.0687
0.501	4.0619
0.502	4.0551
0.503	4.0483
0.504	4.0416
0.505	4.0349
0.506	4.0282
0.507	4.0216
0.508	4.0151
0.509	4.0086
0.51	4.0021
0.511	3.9957
0.512	3.9893
0.513	3.983
0.514	3.9767
0.515	3.9705
0.516	3.9643
0.517	3.9581
0.518	3.952
0.519	3.9459
0.52	3.9399
0.521	3.9339
0.522	3.9279
0.523	3.922
0.524	3.9161
0.525	3.9103
0.526	3.9045
0.527	3.8987
0.528	3.893
0.529	3.8873
0.53	3.8817
0.531	3.8761
0.532	3.8705
0.533	3.865
0.534	3.8595
0.535	3.854
0.536	3.8486
0.537	3.8432
0.538	3.8378
0.539	3.8325
0.54	3.8272
0.541	3.822
0.542	3.8168
0.543	3.8116
0.544	3.8064
0.545	3.8013
0.546	3.7962
0.547	3.7912
0.548	3.7862
0.549	3.7812
0.55	3.7763
0.551	3.7713
0.552	3.7665
0.553	3.7616
0.554	3.7568
0.555	3.752
0.556	3.7472
0.557	3.7425
0.558	3.7378
0.559	3.7331
0.56	3.7285
0.561	3.7239
0.562	3.7193
0.563	3.7148
0.564	3.7102
0.565	3.7058
0.566	3.7013
0.567	3.6969
0.568	3.6925
0.569	3.6881
0.57	3.6837
0.571	3.6794
0.572	3.6751
0.573	3.6709
0.574	3.6666
0.575	3.6624
0.576	3.6582
0.577	3.6541
0.578	3.65
0.579	3.6459
0.58	3.6418
0.581	3.6377
0.582	3.6337
0.583	3.6297
0.584	3.6257
0.585	3.6218
0.586	3.6179
0.587	3.614
0.588	3.6101
0.589	3.6062
0.59	3.6024
0.591	3.5986
0.592	3.5948
0.593	3.5911
0.594	3.5874
0.595	3.5837
0.596	3.58
0.597	3.5763
0.598	3.5727
0.599	3.5691
0.6	3.5655
0.601	3.5619
0.602	3.5584
0.603	3.5548
0.604	3.5513
0.605	3.5479
0.606	3.5444
0.607	3.541
0.608	3.5376
0.609	3.5342
0.61	3.5308
0.611	3.5275
0.612	3.5241
0.613	3.5208
0.614	3.5175
0.615	3.5143
0.616	3.511
0.617	3.5078
0.618	3.5046
0.619	3.5014
0.62	3.4982
0.621	3.4951
0.622	3.492
0.623	3.4888
0.624	3.4858
0.625	3.4827
0.626	3.4796
0.627	3.4766
0.628	3.4736
0.629	3.4706
0.63	3.4676
0.631	3.4647
0.632	3.4617
0.633	3.4588
0.634	3.4559
0.635	3.453
0.636	3.4502
0.637	3.4473
0.638	3.4445
0.639	3.4417
0.64	3.4389
0.641	3.4361
0.642	3.4333
0.643	3.4306
0.644	3.4279
0.645	3.4251
0.646	3.4225
0.647	3.4198
0.648	3.4171
0.649	3.4145
0.65	3.4118
0.651	3.4092
0.652	3.4066
0.653	3.4041
0.654	3.4015
0.655	3.3989
0.656	3.3964
0.657	3.3939
0.658	3.3914
0.659	3.3889
0.66	3.3864
0.661	3.384
0.662	3.3815
0.663	3.3791
0.664	3.3767
0.665	3.3743
0.666	3.3719
0.667	3.3695
0.668	3.3672
0.669	3.3648
0.67	3.3625
0.671	3.3602
0.672	3.3579
0.673	3.3556
0.674	3.3534
0.675	3.3511
0.676	3.3489
0.677	3.3466
0.678	3.3444
0.679	3.3422
0.68	3.34
0.681	3.3379
0.682	3.3357
0.683	3.3335
0.684	3.3314
0.685	3.3293
0.686	3.3272
0.687	3.3251
0.688	3.323
0.689	3.3209
0.69	3.3189
0.691	3.3168
0.692	3.3148
0.693	3.3128
0.694	3.3108
0.695	3.3088
0.696	3.3068
0.697	3.3048
0.698	3.3028
0.699	3.3009
0.7	3.2989
0.701	3.297
0.702	3.2951
0.703	3.2932
0.704	3.2913
0.705	3.2894
0.706	3.2876
0.707	3.2857
0.708	3.2839
0.709	3.282
0.71	3.2802
0.711	3.2784
0.712	3.2766
0.713	3.2748
0.714	3.273
0.715	3.2712
0.716	3.2695
0.717	3.2677
0.718	3.266
0.719	3.2643
0.72	3.2626
0.721	3.2609
0.722	3.2592
0.723	3.2575
0.724	3.2558
0.725	3.2541
0.726	3.2525
0.727	3.2508
0.728	3.2492
0.729	3.2476
0.73	3.2459
0.731	3.2443
0.732	3.2427
0.733	3.2412
0.734	3.2396
0.735	3.238
0.736	3.2364
0.737	3.2349
0.738	3.2334
0.739	3.2318
0.74	3.2303
0.741	3.2288
0.742	3.2273
0.743	3.2258
0.744	3.2243
0.745	3.2228
0.746	3.2214
0.747	3.2199
0.748	3.2185
0.749	3.217
0.75	3.2156
0.751	3.2142
0.752	3.2127
0.753	3.2113
0.754	3.2099
0.755	3.2085
0.756	3.2072
0.757	3.2058
0.758	3.2044
0.759	3.2031
0.76	3.2017
0.761	3.2004
0.762	3.199
0.763	3.1977
0.764	3.1964
0.765	3.1951
0.766	3.1938
0.767	3.1925
0.768	3.1912
0.769	3.1899
0.77	3.1886
0.771	3.1874
0.772	3.1861
0.773	3.1849
0.774	3.1836
0.775	3.1824
0.776	3.1812
0.777	3.18
0.778	3.1787
0.779	3.1775
0.78	3.1763
0.781	3.1752
0.782	3.174
0.783	3.1728
0.784	3.1716
0.785	3.1705
0.786	3.1693
0.787	3.1682
0.788	3.167
0.789	3.1659
0.79	3.1648
0.791	3.1636
0.792	3.1625
0.793	3.1614
0.794	3.1603
0.795	3.1592
0.796	3.1581
0.797	3.1571
0.798	3.156
0.799	3.1549
0.8	3.1539
0.801	3.1528
0.802	3.1518
0.803	3.1507
0.804	3.1497
0.805	3.1486
0.806	3.1476
0.807	3.1466
0.808	3.1456
0.809	3.1446
0.81	3.1436
0.811	3.1426
0.812	3.1416
0.813	3.1406
0.814	3.1396
0.815	3.1387
0.816	3.1377
0.817	3.1368
0.818	3.1358
0.819	3.1349
0.82	3.1339
0.821	3.133
0.822	3.132
0.823	3.1311
0.824	3.1302
0.825	3.1293
0.826	3.1284
0.827	3.1275
0.828	3.1266
0.829	3.1257
0.83	3.1248
0.831	3.1239
0.832	3.1231
0.833	3.1222
0.834	3.1213
0.835	3.1205
0.836	3.1196
0.837	3.1188
0.838	3.1179
0.839	3.1171
0.84	3.1162
0.841	3.1154
0.842	3.1146
0.843	3.1138
0.844	3.113
0.845	3.1121
0.846	3.1113
0.847	3.1105
0.848	3.1097
0.849	3.109
0.85	3.1082
0.851	3.1074
0.852	3.1066
0.853	3.1058
0.854	3.1051
0.855	3.1043
0.856	3.1036
0.857	3.1028
0.858	3.1021
0.859	3.1013
0.86	3.1006
0.861	3.0998
0.862	3.0991
0.863	3.0984
0.864	3.0977
0.865	3.0969
0.866	3.0962
0.867	3.0955
0.868	3.0948
0.869	3.0941
0.87	3.0934
0.871	3.0927
0.872	3.0921
0.873	3.0914
0.874	3.0907
0.875	3.09
0.876	3.0893
0.877	3.0887
0.878	3.088
0.879	3.0874
0.88	3.0867
0.881	3.0861
0.882	3.0854
0.883	3.0848
0.884	3.0841
0.885	3.0835
0.886	3.0829
0.887	3.0822
0.888	3.0816
0.889	3.081
0.89	3.0804
0.891	3.0798
0.892	3.0792
0.893	3.0786
0.894	3.078
0.895	3.0774
0.896	3.0768
0.897	3.0762
0.898	3.0756
0.899	3.075
0.9	3.0744
0.901	3.0739
0.902	3.0733
0.903	3.0727
0.904	3.0722
0.905	3.0716
0.906	3.071
0.907	3.0705
0.908	3.0699
0.909	3.0694
0.91	3.0689
0.911	3.0683
0.912	3.0678
0.913	3.0672
0.914	3.0667
0.915	3.0662
0.916	3.0657
0.917	3.0651
0.918	3.0646
0.919	3.0641
0.92	3.0636
0.921	3.0631
0.922	3.0626
0.923	3.0621
0.924	3.0616
0.925	3.0611
0.926	3.0606
0.927	3.0601
0.928	3.0596
0.929	3.0591
0.93	3.0587
0.931	3.0582
0.932	3.0577
0.933	3.0572
0.934	3.0568
0.935	3.0563
0.936	3.0558
0.937	3.0554
0.938	3.0549
0.939	3.0545
0.94	3.054
0.941	3.0536
0.942	3.0531
0.943	3.0527
0.944	3.0523
0.945	3.0518
0.946	3.0514
0.947	3.051
0.948	3.0505
0.949	3.0501
0.95	3.0497
0.951	3.0493
0.952	3.0488
0.953	3.0484
0.954	3.048
0.955	3.0476
0.956	3.0472
0.957	3.0468
0.958	3.0464
0.959	3.046
0.96	3.0456
0.961	3.0452
0.962	3.0448
0.963	3.0444
0.964	3.044
0.965	3.0437
0.966	3.0433
0.967	3.0429
0.968	3.0425
0.969	3.0421
0.97	3.0418
0.971	3.0414
0.972	3.041
0.973	3.0407
0.974	3.0403
0.975	3.0399
0.976	3.0396
0.977	3.0392
0.978	3.0389
0.979	3.0385
0.98	3.0382
0.981	3.0378
0.982	3.0375
0.983	3.0371
0.984	3.0368
0.985	3.0365
0.986	3.0361
0.987	3.0358
0.988	3.0355
0.989	3.0351
0.99	3.0348
0.991	3.0345
0.992	3.0342
0.993	3.0339
0.994	3.0335
0.995	3.0332
0.996	3.0329
0.997	3.0326
0.998	3.0323
0.999	3.032
1	3.0317
1.001	3.0208
1.002	3.9491
1.003	6.3556
1.004	9.1126
1.005	11.079
1.006	12.643
1.007	13.909
1.008	14.95
1.009	15.818
1.01	16.552
1.011	17.181
1.012	17.728
1.013	18.209
1.014	18.637
1.015	19.022
1.016	19.373
1.017	19.694
1.018	19.991
1.019	20.267
1.02	20.525
1.021	20.769
1.022	20.999
1.023	21.216
1.024	21.424
1.025	21.621
1.026	21.81
1.027	21.99
1.028	22.163
1.029	22.328
1.03	22.486
1.031	22.638
1.032	22.783
1.033	22.922
1.034	23.055
1.035	23.182
1.036	23.304
1.037	23.42
1.038	23.531
1.039	23.637
1.04	23.737
1.041	23.833
1.042	23.923
1.043	24.009
1.044	24.09
1.045	24.166
1.046	24.237
1.047	24.304
1.048	24.367
1.049	24.425
1.05	24.479
1.051	24.528
1.052	24.574
1.053	24.615
1.054	24.652
1.055	24.685
1.056	24.715
1.057	24.74
1.058	24.762
1.059	24.78
1.06	24.794
1.061	24.804
1.062	24.811
1.063	24.815
1.064	24.815
1.065	24.812
1.066	24.805
1.067	24.795
1.068	24.782
1.069	24.766
1.07	24.747
1.071	24.724
1.072	24.699
1.073	24.67
1.074	24.639
1.075	24.605
1.076	24.568
1.077	24.528
1.078	24.486
1.079	24.44
1.08	24.393
1.081	24.342
1.082	24.29
1.083	24.234
1.084	24.176
1.085	24.116
1.086	24.054
1.087	23.989
1.088	23.922
1.089	23.853
1.09	23.781
1.091	23.707
1.092	23.632
1.093	23.554
1.094	23.474
1.095	23.392
1.096	23.309
1.097	23.223
1.098	23.135
1.099	23.046
1.1	22.955
1.101	22.862
1.102	22.767
1.103	22.671
1.104	22.573
1.105	22.473
1.106	22.372
1.107	22.269
1.108	22.164
1.109	22.058
1.11	21.951
1.111	21.842
1.112	21.732
1.113	21.62
1.114	21.507
1.115	21.393
1.116	21.278
1.117	21.161
1.118	21.043
1.119	20.923
1.12	20.803
1.121	20.681
1.122	20.558
1.123	20.435
1.124	20.31
1.125	20.184
1.126	20.057
1.127	19.929
1.128	19.8
1.129	19.67
1.13	19.539
1.131	19.407
1.132	19.274
1.133	19.141
1.134	19.006
1.135	18.871
1.136	18.735
1.137	18.599
1.138	18.461
1.139	18.323
1.14	18.184
1.141	18.044
1.142	17.904
1.143	17.763
1.144	17.621
1.145	17.479
1.146	17.336
1.147	17.193
1.148	17.049
1.149	16.905
1.15	16.76
1.151	16.614
1.152	16.468
1.153	16.322
1.154	16.175
1.155	16.027
1.156	15.88
1.157	15.732
1.158	15.583
1.159	15.434
1.16	15.285
1.161	15.135
1.162	14.985
1.163	14.835
1.164	14.685
1.165	14.534
1.166	14.383
1.167	14.231
1.168	14.08
1.169	13.928
1.17	13.776
1.171	13.624
1.172	13.471
1.173	13.318
1.174	13.166
1.175	13.013
1.176	12.86
1.177	12.706
1.178	12.553
1.179	12.4
1.18	12.246
1.181	12.093
1.182	11.939
1.183	11.785
1.184	11.631
1.185	11.478
1.186	11.324
1.187	11.17
1.188	11.016
1.189	10.862
1.19	10.708
1.191	10.554
1.192	10.4
1.193	10.247
1.194	10.093
1.195	9.9391
1.196	9.7854
1.197	9.6318
1.198	9.4783
1.199	9.3249
1.2	9.1716
1.201	9.0184
1.202	8.8653
1.203	8.7123
1.204	8.5594
1.205	8.4067
1.206	8.2541
1.207	8.1017
1.208	7.9494
1.209	7.7972
1.21	7.6453
1.211	7.4935
1.212	7.3419
1.213	7.1905
1.214	7.0393
1.215	6.8882
1.216	6.7374
1.217	6.5868
1.218	6.4364
1.219	6.2863
1.22	6.1364
1.221	5.9867
1.222	5.8372
1.223	5.688
1.224	5.539
1.225	5.3903
1.226	5.2419
1.227	5.0937
1.228	4.9661
1.229	4.8881
1.23	4.8403
1.231	4.7623
1.232	4.7178
1.233	4.6403
1.234	4.5984
1.235	4.522
1.236	4.482
1.237	4.4075
1.238	4.3685
1.239	4.2965
1.24	4.2578
1.241	4.189
1.242	4.1501
1.243	4.0847
1.244	4.0452
1.245	3.9834
1.246	3.9431
1.247	3.885
1.248	3.844
1.249	3.7893
1.25	3.7478
1.251	3.6962
1.252	3.6544
1.253	3.6056
1.254	3.5638
1.255	3.5173
1.256	3.4759
1.257	3.4315
1.258	3.3905
1.259	3.3479
1.26	3.3077
1.261	3.2666
1.262	3.2272
1.263	3.1876
1.264	3.1491
1.265	3.1107
1.266	3.0732
1.267	3.036
1.268	2.9994
1.269	2.9633
1.27	2.9278
1.271	2.8927
1.272	2.8581
1.273	2.824
1.274	2.7904
1.275	2.7573
1.276	2.7246
1.277	2.6924
1.278	2.6607
1.279	2.6294
1.28	2.5985
1.281	2.5681
1.282	2.5381
1.283	2.5085
1.284	2.4793
1.285	2.4506
1.286	2.4222
1.287	2.3943
1.288	2.3667
1.289	2.3395
1.29	2.3127
1.291	2.2863
1.292	2.2603
1.293	2.2346
1.294	2.2093
1.295	2.1843
1.296	2.1597
1.297	2.1354
1.298	2.1114
1.299	2.0878
1.3	2.0646
1.301	2.0416
1.302	2.019
1.303	1.9967
1.304	1.9746
1.305	1.9529
1.306	1.9315
1.307	1.9104
1.308	1.8896
1.309	1.8691
1.31	1.8488
1.311	1.8289
1.312	1.8092
1.313	1.7898
1.314	1.7706
1.315	1.7517
1.316	1.7331
1.317	1.7147
1.318	1.6966
1.319	1.6788
1.32	1.6611
1.321	1.6438
1.322	1.6266
1.323	1.6097
1.324	1.593
1.325	1.5766
1.326	1.5604
1.327	1.5444
1.328	1.5286
1.329	1.513
1.33	1.4977
1.331	1.4825
1.332	1.4676
1.333	1.4529
1.334	1.4383
1.335	1.424
1.336	1.4098
1.337	1.3959
1.338	1.3821
1.339	1.3685
1.34	1.3551
1.341	1.3419
1.342	1.3289
1.343	1.316
1.344	1.3033
1.345	1.2908
1.346	1.2785
1.347	1.2663
1.348	1.2543
1.349	1.2424
1.35	1.2307
1.351	1.2192
1.352	1.2078
1.353	1.1965
1.354	1.1854
1.355	1.1745
1.356	1.1637
1.357	1.1531
1.358	1.1425
1.359	1.1322
1.36	1.1219
1.361	1.1118
1.362	1.1019
1.363	1.0921
1.364	1.0823
1.365	1.0728
1.366	1.0633
1.367	1.054
1.368	1.0448
1.369	1.0357
1.37	1.0268
1.371	1.0179
1.372	1.0092
1.373	1.0006
1.374	0.99207
1.375	0.98368
1.376	0.9754
1.377	0.96723
1.378	0.95916
1.379	0.9512
1.38	0.94334
1.381	0.93558
1.382	0.92793
1.383	0.92037
1.384	0.91291
1.385	0.90555
1.386	0.89828
1.387	0.8911
1.388	0.88402
1.389	0.87703
1.39	0.87013
1.391	0.86332
1.392	0.85659
1.393	0.84995
1.394	0.8434
1.395	0.83693
1.396	0.83054
1.397	0.82423
1.398	0.818
1.399	0.81186
1.4	0.80579
1.401	0.7998
1.402	0.79388
1.403	0.78804
1.404	0.78227
1.405	0.77657
1.406	0.77095
1.407	0.7654
1.408	0.75991
1.409	0.7545
1.41	0.74915
1.411	0.74388
1.412	0.73866
1.413	0.73351
1.414	0.72843
1.415	0.72341
1.416	0.71845
1.417	0.71356
1.418	0.70872
1.419	0.70395
1.42	0.69923
1.421	0.69457
1.422	0.68997
1.423	0.68543
1.424	0.68094
1.425	0.67651
1.426	0.67213
1.427	0.66781
1.428	0.66354
1.429	0.65932
1.43	0.65515
1.431	0.65103
1.432	0.64697
1.433	0.64295
1.434	0.63898
1.435	0.63506
1.436	0.63119
1.437	0.62737
1.438	0.62359
1.439	0.61986
1.44	0.61617
1.441	0.61252
1.442	0.60892
1.443	0.60537
1.444	0.60185
1.445	0.59838
1.446	0.59495
1.447	0.59156
1.448	0.58821
1.449	0.5849
1.45	0.58163
1.451	0.5784
1.452	0.57521
1.453	0.57206
1.454	0.56894
1.455	0.56586
1.456	0.56281
1.457	0.55981
1.458	0.55683
1.459	0.55389
1.46	0.55099
1.461	0.54812
1.462	0.54528
1.463	0.54248
1.464	0.53971
1.465	0.53697
1.466	0.53427
1.467	0.53159
1.468	0.52895
1.469	0.52633
1.47	0.52375
1.471	0.5212
1.472	0.51867
1.473	0.51618
1.474	0.51371
1.475	0.51127
1.476	0.50886
1.477	0.50648
1.478	0.50412
1.479	0.50179
1.48	0.49949
1.481	0.49721
1.482	0.49496
1.483	0.49274
1.484	0.49053
1.485	0.48836
1.486	0.48621
1.487	0.48408
1.488	0.48198
1.489	0.4799
1.49	0.47784
1.491	0.47581
1.492	0.4738
1.493	0.47181
1.494	0.46984
1.495	0.4679
1.496	0.46597
1.497	0.46407
1.498	0.46219
1.499	0.46033
1.5	0.45849
1.501	0.45667
1.502	0.45487
1.503	0.45309
1.504	0.45133
1.505	0.44959
1.506	0.44786
1.507	0.44616
1.508	0.44447
1.509	0.4428
1.51	0.44115
1.511	0.43952
1.512	0.43791
1.513	0.43631
1.514	0.43473
1.515	0.43317
1.516	0.43162
1.517	0.43009
1.518	0.42857
1.519	0.42708
1.52	0.42559
1.521	0.42413
1.522	0.42268
1.523	0.42124
1.524	0.41982
1.525	0.41841
1.526	0.41702
1.527	0.41564
1.528	0.41428
1.529	0.41293
1.53	0.4116
1.531	0.41028
1.532	0.40897
1.533	0.40767
1.534	0.40639
1.535	0.40513
1.536	0.40387
1.537	0.40263
1.538	0.4014
1.539	0.40018
1.54	0.39898
1.541	0.39779
1.542	0.39661
1.543	0.39544
1.544	0.39428
1.545	0.39314
1.546	0.392
1.547	0.39088
1.548	0.38977
1.549	0.38867
1.55	0.38758
1.551	0.3865
1.552	0.38543
1.553	0.38437
1.554	0.38333
1.555	0.38229
1.556	0.38126
1.557	0.38025
1.558	0.37924
1.559	0.37824
1.56	0.37725
1.561	0.37628
1.562	0.37531
1.563	0.37435
1.564	0.3734
1.565	0.37246
1.566	0.37152
1.567	0.3706
1.568	0.36969
1.569	0.36878
1.57	0.36788
1.571	0.36699
1.572	0.36611
1.573	0.36524
1.574	0.36438
1.575	0.36352
1.576	0.36267
1.577	0.36183
1.578	0.361
1.579	0.36017
1.58	0.35935
1.581	0.35854
1.582	0.35774
1.583	0.35695
1.584	0.35616
1.585	0.35538
1.586	0.3546
1.587	0.35384
1.588	0.35308
1.589	0.35232
1.59	0.35158
1.591	0.35084
1.592	0.3501
1.593	0.34938
1.594	0.34866
1.595	0.34794
1.596	0.34723
1.597	0.34653
1.598	0.34584
1.599	0.34515
1.6	0.34446
1.601	0.34379
1.602	0.34311
1.603	0.34245
1.604	0.34179
1.605	0.34113
1.606	0.34048
1.607	0.33984
1.608	0.3392
1.609	0.33857
1.61	0.33794
1.611	0.33732
1.612	0.3367
1.613	0.33609
1.614	0.33548
1.615	0.33488
1.616	0.33429
1.617	0.33369
1.618	0.33311
1.619	0.33253
1.62	0.33195
1.621	0.33137
1.622	0.33081
1.623	0.33024
1.624	0.32968
1.625	0.32913
1.626	0.32858
1.627	0.32803
1.628	0.32749
1.629	0.32696
1.63	0.32642
1.631	0.32589
1.632	0.32537
1.633	0.32485
1.634	0.32433
1.635	0.32382
1.636	0.32331
1.637	0.32281
1.638	0.32231
1.639	0.32181
1.64	0.32132
1.641	0.32083
1.642	0.32034
1.643	0.31986
1.644	0.31938
1.645	0.31891
1.646	0.31844
1.647	0.31797
1.648	0.31751
1.649	0.31704
1.65	0.31659
1.651	0.31613
1.652	0.31568
1.653	0.31523
1.654	0.31479
1.655	0.31435
1.656	0.31391
1.657	0.31348
1.658	0.31305
1.659	0.31262
1.66	0.31219
1.661	0.31177
1.662	0.31135
1.663	0.31093
1.664	0.31052
1.665	0.31011
1.666	0.3097
1.667	0.3093
1.668	0.30889
1.669	0.30849
1.67	0.3081
1.671	0.3077
1.672	0.30731
1.673	0.30692
1.674	0.30654
1.675	0.30615
1.676	0.30577
1.677	0.30539
1.678	0.30502
1.679	0.30464
1.68	0.30427
1.681	0.3039
1.682	0.30354
1.683	0.30317
1.684	0.30281
1.685	0.30245
1.686	0.3021
1.687	0.30174
1.688	0.30139
1.689	0.30104
1.69	0.30069
1.691	0.30034
1.692	0.3
1.693	0.29966
1.694	0.29932
1.695	0.29898
1.696	0.29865
1.697	0.29831
1.698	0.29798
1.699	0.29765
1.7	0.29732
1.701	0.297
1.702	0.29668
1.703	0.29635
1.704	0.29604
1.705	0.29572
1.706	0.2954
1.707	0.29509
1.708	0.29478
1.709	0.29447
1.71	0.29416
1.711	0.29385
1.712	0.29354
1.713	0.29324
1.714	0.29294
1.715	0.29264
1.716	0.29234
1.717	0.29205
1.718	0.29175
1.719	0.29146
1.72	0.29117
1.721	0.29088
1.722	0.29059
1.723	0.2903
1.724	0.29001
1.725	0.28973
1.726	0.28945
1.727	0.28917
1.728	0.28889
1.729	0.28861
1.73	0.28833
1.731	0.28806
1.732	0.28779
1.733	0.28751
1.734	0.28724
1.735	0.28697
1.736	0.28671
1.737	0.28644
1.738	0.28617
1.739	0.28591
1.74	0.28565
1.741	0.28539
1.742	0.28513
1.743	0.28487
1.744	0.28461
1.745	0.28436
1.746	0.2841
1.747	0.28385
1.748	0.28359
1.749	0.28334
1.75	0.28309
1.751	0.28285
1.752	0.2826
1.753	0.28235
1.754	0.28211
1.755	0.28186
1.756	0.28162
1.757	0.28138
1.758	0.28114
1.759	0.2809
1.76	0.28066
1.761	0.28042
1.762	0.28018
1.763	0.27995
1.764	0.27971
1.765	0.27948
1.766	0.27925
1.767	0.27902
1.768	0.27879
1.769	0.27856
1.77	0.27833
1.771	0.2781
1.772	0.27788
1.773	0.27765
1.774	0.27743
1.775	0.2772
1.776	0.27698
1.777	0.27676
1.778	0.27654
1.779	0.27632
1.78	0.2761
1.781	0.27588
1.782	0.27567
1.783	0.27545
1.784	0.27524
1.785	0.27502
1.786	0.27481
1.787	0.2746
1.788	0.27438
1.789	0.27417
1.79	0.27396
1.791	0.27375
1.792	0.27355
1.793	0.27334
1.794	0.27313
1.795	0.27292
1.796	0.27272
1.797	0.27251
1.798	0.27231
1.799	0.27211
1.8	0.27191
1.801	0.2717
1.802	0.2715
1.803	0.2713
1.804	0.2711
1.805	0.27091
1.806	0.27071
1.807	0.27051
1.808	0.27031
1.809	0.27012
1.81	0.26992
1.811	0.26973
1.812	0.26954
1.813	0.26934
1.814	0.26915
1.815	0.26896
1.816	0.26877
1.817	0.26858
1.818	0.26839
1.819	0.2682
1.82	0.26801
1.821	0.26782
1.822	0.26764
1.823	0.26745
1.824	0.26726
1.825	0.26708
1.826	0.26689
1.827	0.26671
1.828	0.26653
1.829	0.26634
1.83	0.26616
1.831	0.26598
1.832	0.2658
1.833	0.26562
1.834	0.26544
1.835	0.26526
1.836	0.26508
1.837	0.2649
1.838	0.26472
1.839	0.26455
1.84	0.26437
1.841	0.26419
1.842	0.26402
1.843	0.26384
1.844	0.26367
1.845	0.26349
1.846	0.26332
1.847	0.26315
1.848	0.26297
1.849	0.2628
1.85	0.26263
1.851	0.26246
1.852	0.26229
1.853	0.26212
1.854	0.26195
1.855	0.26178
1.856	0.26161
1.857	0.26144
1.858	0.26127
1.859	0.26111
1.86	0.26094
1.861	0.26077
1.862	0.26061
1.863	0.26044
1.864	0.26028
1.865	0.26011
1.866	0.25995
1.867	0.25979
1.868	0.25962
1.869	0.25946
1.87	0.2593
1.871	0.25913
1.872	0.25897
1.873	0.25881
1.874	0.25865
1.875	0.25849
1.876	0.25833
1.877	0.25817
1.878	0.25801
1.879	0.25785
1.88	0.2577
1.881	0.25754
1.882	0.25738
1.883	0.25722
1.884	0.25707
1.885	0.25691
1.886	0.25675
1.887	0.2566
1.888	0.25644
1.889	0.25629
1.89	0.25613
1.891	0.25598
1.892	0.25582
1.893	0.25567
1.894	0.25552
1.895	0.25537
1.896	0.25521
1.897	0.25506
1.898	0.25491
1.899	0.25476
1.9	0.25461
1.901	0.25446
1.902	0.25431
1.903	0.25416
1.904	0.25401
1.905	0.25386
1.906	0.25371
1.907	0.25356
1.908	0.25341
1.909	0.25326
1.91	0.25311
1.911	0.25297
1.912	0.25282
1.913	0.25267
1.914	0.25253
1.915	0.25238
1.916	0.25223
1.917	0.25209
1.918	0.25194
1.919	0.2518
1.92	0.25165
1.921	0.25151
1.922	0.25137
1.923	0.25122
1.924	0.25108
1.925	0.25093
1.926	0.25079
1.927	0.25065
1.928	0.25051
1.929	0.25036
1.93	0.25022
1.931	0.25008
1.932	0.24994
1.933	0.2498
1.934	0.24966
1.935	0.24952
1.936	0.24938
1.937	0.24924
1.938	0.2491
1.939	0.24896
1.94	0.24882
1.941	0.24868
1.942	0.24854
1.943	0.2484
1.944	0.24827
1.945	0.24813
1.946	0.24799
1.947	0.24785
1.948	0.24772
1.949	0.24758
1.95	0.24744
1.951	0.24731
1.952	0.24717
1.953	0.24703
1.954	0.2469
1.955	0.24676
1.956	0.24663
1.957	0.24649
1.958	0.24636
1.959	0.24622
1.96	0.24609
1.961	0.24595
1.962	0.24582
1.963	0.24569
1.964	0.24555
1.965	0.24542
1.966	0.24529
1.967	0.24516
1.968	0.24502
1.969	0.24489
1.97	0.24476
1.971	0.24463
1.972	0.24449
1.973	0.24436
1.974	0.24423
1.975	0.2441
1.976	0.24397
1.977	0.24384
1.978	0.24371
1.979	0.24358
1.98	0.24345
1.981	0.24332
1.982	0.24319
1.983	0.24306
1.984	0.24293
1.985	0.2428
1.986	0.24267
1.987	0.24255
1.988	0.24242
1.989	0.24229
1.99	0.24216
1.991	0.24203
1.992	0.24191
1.993	0.24178
1.994	0.24165
1.995	0.24152
1.996	0.2414
1.997	0.24127
1.998	0.24114
1.999	0.24102
2	0.24089
2.001	0.28432
2.002	0.32181
2.003	0.36031
2.004	0.40083
2.005	0.44347
2.006	0.48815
2.007	0.53473
2.008	0.58309
2.009	0.6331
2.01	0.68467
2.011	0.73773
2.012	0.79223
2.013	0.84813
2.014	0.90545
2.015	0.96419
2.016	1.0244
2.017	1.086
2.018	1.1492
2.019	1.2139
2.02	1.2802
2.021	1.348
2.022	1.4175
2.023	1.4885
2.024	1.5612
2.025	1.6354
2.026	1.7112
2.027	1.7884
2.028	1.8671
2.029	1.9472
2.03	2.0286
2.031	2.1112
2.032	2.195
2.033	2.2799
2.034	2.3658
2.035	2.4526
2.036	2.5402
2.037	2.6284
2.038	2.7174
2.039	2.8068
2.04	2.8967
2.041	2.9869
2.042	3.0773
2.043	3.168
2.044	3.2587
2.045	3.3494
2.046	3.4401
2.047	3.5306
2.048	3.6209
2.049	3.7109
2.05	3.8005
2.051	3.8898
2.052	3.9786
2.053	4.0669
2.054	4.1546
2.055	4.2417
2.056	4.3282
2.057	4.4139
2.058	4.499
2.059	4.5832
2.06	4.6667
2.061	4.7493
2.062	4.8311
2.063	4.9119
2.064	4.9919
2.065	5.274
2.066	5.5364
2.067	5.789
2.068	6.0374
2.069	6.2817
2.07	6.5221
2.071	6.7585
2.072	6.9911
2.073	7.2199
2.074	7.4449
2.075	7.6661
2.076	7.8837
2.077	8.0977
2.078	8.3081
2.079	8.515
2.08	8.7183
2.081	8.9182
2.082	9.1147
2.083	9.3079
2.084	9.4977
2.085	9.6843
2.086	9.8677
2.087	10.048
2.088	10.225
2.089	10.399
2.09	10.57
2.091	10.737
2.092	10.902
2.093	11.064
2.094	11.223
2.095	11.379
2.096	11.532
2.097	11.683
2.098	11.83
2.099	11.975
2.1	12.118
2.101	12.257
2.102	12.394
2.103	12.529
2.104	12.661
2.105	12.79
2.106	12.917
2.107	13.041
2.108	13.163
2.109	13.283
2.11	13.4
2.111	13.515
2.112	13.628
2.113	13.738
2.114	13.846
2.115	13.952
2.116	14.056
2.117	14.157
2.118	14.257
2.119	14.354
2.12	14.45
2.121	14.543
2.122	14.634
2.123	14.724
2.124	14.811
2.125	14.897
2.126	14.98
2.127	15.062
2.128	15.142
2.129	15.22
2.13	15.296
2.131	15.37
2.132	15.443
2.133	15.514
2.134	15.583
2.135	15.651
2.136	15.717
2.137	15.781
2.138	15.844
2.139	15.905
2.14	15.965
2.141	16.023
2.142	16.079
2.143	16.135
2.144	16.188
2.145	16.24
2.146	16.291
2.147	16.34
2.148	16.388
2.149	16.434
2.15	16.48
2.151	16.523
2.152	16.566
2.153	16.607
2.154	16.647
2.155	16.686
2.156	16.723
2.157	16.759
2.158	16.794
2.159	16.828
2.16	16.861
2.161	16.892
2.162	16.922
2.163	16.952
2.164	16.98
2.165	17.007
2.166	17.033
2.167	17.057
2.168	17.081
2.169	17.104
2.17	17.126
2.171	17.147
2.172	17.166
2.173	17.185
2.174	17.203
2.175	17.22
2.176	17.236
2.177	17.251
2.178	17.266
2.179	17.279
2.18	17.291
2.181	17.303
2.182	17.314
2.183	17.324
2.184	17.333
2.185	17.341
2.186	17.349
2.187	17.356
2.188	17.362
2.189	17.367
2.19	17.372
2.191	17.375
2.192	17.378
2.193	17.381
2.194	17.382
2.195	17.383
2.196	17.384
2.197	17.383
2.198	17.382
2.199	17.381
2.2	17.379
2.201	17.376
2.202	17.372
2.203	17.368
2.204	17.363
2.205	17.358
2.206	17.352
2.207	17.346
2.208	17.339
2.209	17.331
2.21	17.323
2.211	17.315
2.212	17.306
2.213	17.296
2.214	17.286
2.215	17.276
2.216	17.265
2.217	17.253
2.218	17.241
2.219	17.229
2.22	17.216
2.221	17.203
2.222	17.189
2.223	17.175
2.224	17.16
2.225	17.145
2.226	17.13
2.227	17.114
2.228	17.098
2.229	17.081
2.23	17.064
2.231	17.047
2.232	17.03
2.233	17.012
2.234	16.993
2.235	16.975
2.236	16.956
2.237	16.936
2.238	16.917
2.239	16.897
2.24	16.876
2.241	16.856
2.242	16.835
2.243	16.814
2.244	16.793
2.245	16.771
2.246	16.749
2.247	16.727
2.248	16.704
2.249	16.682
2.25	16.659
2.251	16.635
2.252	16.612
2.253	16.588
2.254	16.564
2.255	16.54
2.256	16.516
2.257	16.491
2.258	16.467
2.259	16.442
2.26	16.416
2.261	16.391
2.262	16.366
2.263	16.34
2.264	16.314
2.265	16.288
2.266	16.262
2.267	16.235
2.268	16.209
2.269	16.182
2.27	16.155
2.271	16.128
2.272	16.101
2.273	16.073
2.274	16.046
2.275	16.018
2.276	15.991
2.277	15.963
2.278	15.935
2.279	15.907
2.28	15.879
2.281	15.85
2.282	15.822
2.283	15.793
2.284	15.765
2.285	15.736
2.286	15.707
2.287	15.678
2.288	15.649
2.289	15.62
2.29	15.591
2.291	15.562
2.292	15.533
2.293	15.503
2.294	15.474
2.295	15.444
2.296	15.415
2.297	15.385
2.298	15.355
2.299	15.326
2.3	15.296
2.301	15.266
2.302	15.236
2.303	15.206
2.304	15.176
2.305	15.146
2.306	15.116
2.307	15.086
2.308	15.056
2.309	15.025
2.31	14.995
2.311	14.965
2.312	14.935
2.313	14.904
2.314	14.874
2.315	14.844
2.316	14.813
2.317	14.783
2.318	14.753
2.319	14.722
2.32	14.692
2.321	14.662
2.322	14.631
2.323	14.601
2.324	14.57
2.325	14.54
2.326	14.51
2.327	14.479
2.328	14.449
2.329	14.419
2.33	14.388
2.331	14.358
2.332	14.327
2.333	14.297
2.334	14.267
2.335	14.237
2.336	14.206
2.337	14.176
2.338	14.146
2.339	14.116
2.34	14.085
2.341	14.055
2.342	14.025
2.343	13.995
2.344	13.965
2.345	13.935
2.346	13.905
2.347	13.875
2.348	13.845
2.349	13.815
2.35	13.785
2.351	13.756
2.352	13.726
2.353	13.696
2.354	13.666
2.355	13.637
2.356	13.607
2.357	13.578
2.358	13.548
2.359	13.519
2.36	13.489
2.361	13.46
2.362	13.43
2.363	13.401
2.364	13.372
2.365	13.343
2.366	13.314
2.367	13.285
2.368	13.256
2.369	13.227
2.37	13.198
2.371	13.169
2.372	13.14
2.373	13.112
2.374	13.083
2.375	13.054
2.376	13.026
2.377	12.997
2.378	12.969
2.379	12.941
2.38	12.912
2.381	12.884
2.382	12.856
2.383	12.828
2.384	12.8
2.385	12.772
2.386	12.744
2.387	12.716
2.388	12.688
2.389	12.661
2.39	12.633
2.391	12.606
2.392	12.578
2.393	12.551
2.394	12.523
2.395	12.496
2.396	12.469
2.397	12.442
2.398	12.415
2.399	12.388
2.4	12.361
2.401	12.334
2.402	12.307
2.403	12.281
2.404	12.254
2.405	12.228
2.406	12.201
2.407	12.175
2.408	12.149
2.409	12.122
2.41	12.096
2.411	12.07
2.412	12.044
2.413	12.018
2.414	11.993
2.415	11.967
2.416	11.941
2.417	11.916
2.418	11.89
2.419	11.865
2.42	11.839
2.421	11.814
2.422	11.789
2.423	11.764
2.424	11.739
2.425	11.714
2.426	11.689
2.427	11.664
2.428	11.64
2.429	11.615
2.43	11.59
2.431	11.566
2.432	11.542
2.433	11.517
2.434	11.493
2.435	11.469
2.436	11.445
2.437	11.421
2.438	11.397
2.439	11.373
2.44	11.35
2.441	11.326
2.442	11.302
2.443	11.279
2.444	11.256
2.445	11.232
2.446	11.209
2.447	11.186
2.448	11.163
2.449	11.14
2.45	11.117
2.451	11.094
2.452	11.072
2.453	11.049
2.454	11.026
2.455	11.004
2.456	10.982
2.457	10.959
2.458	10.937
2.459	10.915
2.46	10.893
2.461	10.871
2.462	10.849
2.463	10.827
2.464	10.805
2.465	10.784
2.466	10.762
2.467	10.741
2.468	10.719
2.469	10.698
2.47	10.677
2.471	10.656
2.472	10.635
2.473	10.614
2.474	10.593
2.475	10.572
2.476	10.551
2.477	10.53
2.478	10.51
2.479	10.489
2.48	10.469
2.481	10.449
2.482	10.428
2.483	10.408
2.484	10.388
2.485	10.368
2.486	10.348
2.487	10.328
2.488	10.309
2.489	10.289
2.49	10.269
2.491	10.25
2.492	10.23
2.493	10.211
2.494	10.192
2.495	10.172
2.496	10.153
2.497	10.134
2.498	10.115
2.499	10.096
2.5	10.077
2.501	10.059
2.502	10.04
2.503	10.021
2.504	10.003
2.505	9.9845
2.506	9.9661
2.507	9.9478
2.508	9.9296
2.509	9.9115
2.51	9.8934
2.511	9.8755
2.512	9.8576
2.513	9.8397
2.514	9.822
2.515	9.8043
2.516	9.7867
2.517	9.7692
2.518	9.7517
2.519	9.7344
2.52	9.7171
2.521	9.6999
2.522	9.6827
2.523	9.6656
2.524	9.6486
2.525	9.6317
2.526	9.6148
2.527	9.5981
2.528	9.5814
2.529	9.5647
2.53	9.5482
2.531	9.5317
2.532	9.5153
2.533	9.4989
2.534	9.4826
2.535	9.4664
2.536	9.4503
2.537	9.4343
2.538	9.4183
2.539	9.4023
2.54	9.3865
2.541	9.3707
2.542	9.355
2.543	9.3394
2.544	9.3238
2.545	9.3083
2.546	9.2929
2.547	9.2775
2.548	9.2622
2.549	9.247
2.55	9.2319
2.551	9.2168
2.552	9.2018
2.553	9.1868
2.554	9.1719
2.555	9.1571
2.556	9.1424
2.557	9.1277
2.558	9.1131
2.559	9.0985
2.56	9.0841
2.561	9.0696
2.562	9.0553
2.563	9.041
2.564	9.0268
2.565	9.0126
2.566	8.9986
2.567	8.9845
2.568	8.9706
2.569	8.9567
2.57	8.9428
2.571	8.9291
2.572	8.9154
2.573	8.9017
2.574	8.8882
2.575	8.8746
2.576	8.8612
2.577	8.8478
2.578	8.8345
2.579	8.8212
2.58	8.808
2.581	8.7949
2.582	8.7818
2.583	8.7688
2.584	8.7558
2.585	8.7429
2.586	8.7301
2.587	8.7173
2.588	8.7046
2.589	8.6919
2.59	8.6793
2.591	8.6668
2.592	8.6543
2.593	8.6419
2.594	8.6295
2.595	8.6172
2.596	8.6049
2.597	8.5928
2.598	8.5806
2.599	8.5685
2.6	8.5565
2.601	8.5446
2.602	8.5327
2.603	8.5208
2.604	8.509
2.605	8.4973
2.606	8.4856
2.607	8.474
2.608	8.4624
2.609	8.4509
2.61	8.4395
2.611	8.428
2.612	8.4167
2.613	8.4054
2.614	8.3942
2.615	8.383
2.616	8.3718
2.617	8.3608
2.618	8.3497
2.619	8.3388
2.62	8.3278
2.621	8.317
2.622	8.3062
2.623	8.2954
2.624	8.2847
2.625	8.274
2.626	8.2634
2.627	8.2529
2.628	8.2424
2.629	8.2319
2.63	8.2215
2.631	8.2111
2.632	8.2008
2.633	8.1906
2.634	8.1804
2.635	8.1702
2.636	8.1601
2.637	8.1501
2.638	8.1401
2.639	8.1301
2.64	8.1202
2.641	8.1103
2.642	8.1005
2.643	8.0907
2.644	8.081
2.645	8.0714
2.646	8.0617
2.647	8.0522
2.648	8.0426
2.649	8.0331
2.65	8.0237
2.651	8.0143
2.652	8.005
2.653	7.9957
2.654	7.9864
2.655	7.9772
2.656	7.968
2.657	7.9589
2.658	7.9499
2.659	7.9408
2.66	7.9318
2.661	7.9229
2.662	7.914
2.663	7.9052
2.664	7.8964
2.665	7.8876
2.666	7.8789
2.667	7.8702
2.668	7.8616
2.669	7.853
2.67	7.8444
2.671	7.8359
2.672	7.8274
2.673	7.819
2.674	7.8106
2.675	7.8023
2.676	7.794
2.677	7.7857
2.678	7.7775
2.679	7.7694
2.68	7.7612
2.681	7.7531
2.682	7.7451
2.683	7.7371
2.684	7.7291
2.685	7.7212
2.686	7.7133
2.687	7.7054
2.688	7.6976
2.689	7.6898
2.69	7.6821
2.691	7.6744
2.692	7.6667
2.693	7.6591
2.694	7.6515
2.695	7.6439
2.696	7.6364
2.697	7.629
2.698	7.6215
2.699	7.6141
2.7	7.6068
2.701	7.5994
2.702	7.5922
2.703	7.5849
2.704	7.5777
2.705	7.5705
2.706	7.5634
2.707	7.5563
2.708	7.5492
2.709	7.5422
2.71	7.5352
2.711	7.5282
2.712	7.5213
2.713	7.5144
2.714	7.5075
2.715	7.5007
2.716	7.4939
2.717	7.4871
2.718	7.4804
2.719	7.4737
2.72	7.4671
2.721	7.4604
2.722	7.4539
2.723	7.4473
2.724	7.4408
2.725	7.4343
2.726	7.4278
2.727	7.4214
2.728	7.415
2.729	7.4086
2.73	7.4023
2.731	7.396
2.732	7.3898
2.733	7.3835
2.734	7.3773
2.735	7.3712
2.736	7.365
2.737	7.3589
2.738	7.3528
2.739	7.3468
2.74	7.3408
2.741	7.3348
2.742	7.3288
2.743	7.3229
2.744	7.317
2.745	7.3111
2.746	7.3053
2.747	7.2995
2.748	7.2937
2.749	7.288
2.75	7.2823
2.751	7.2766
2.752	7.2709
2.753	7.2653
2.754	7.2597
2.755	7.2541
2.756	7.2485
2.757	7.243
2.758	7.2375
2.759	7.2321
2.76	7.2266
2.761	7.2212
2.762	7.2158
2.763	7.2105
2.764	7.2052
2.765	7.1999
2.766	7.1946
2.767	7.1893
2.768	7.1841
2.769	7.1789
2.77	7.1738
2.771	7.1686
2.772	7.1635
2.773	7.1584
2.774	7.1534
2.775	7.1483
2.776	7.1433
2.777	7.1383
2.778	7.1334
2.779	7.1284
2.78	7.1235
2.781	7.1186
2.782	7.1138
2.783	7.1089
2.784	7.1041
2.785	7.0993
2.786	7.0946
2.787	7.0898
2.788	7.0851
2.789	7.0804
2.79	7.0758
2.791	7.0711
2.792	7.0665
2.793	7.0619
2.794	7.0573
2.795	7.0528
2.796	7.0483
2.797	7.0438
2.798	7.0393
2.799	7.0348
2.8	7.0304
2.801	7.026
2.802	7.0216
2.803	7.0172
2.804	7.0129
2.805	7.0086
2.806	7.0042
2.807	7
2.808	6.9957
2.809	6.9915
2.81	6.9873
2.811	6.9831
2.812	6.9789
2.813	6.9747
2.814	6.9706
2.815	6.9665
2.816	6.9624
2.817	6.9583
2.818	6.9543
2.819	6.9503
2.82	6.9463
2.821	6.9423
2.822	6.9383
2.823	6.9344
2.824	6.9304
2.825	6.9265
2.826	6.9226
2.827	6.9188
2.828	6.9149
2.829	6.9111
2.83	6.9073
2.831	6.9035
2.832	6.8997
2.833	6.896
2.834	6.8923
2.835	6.8885
2.836	6.8849
2.837	6.8812
2.838	6.8775
2.839	6.8739
2.84	6.8703
2.841	6.8667
2.842	6.8631
2.843	6.8595
2.844	6.856
2.845	6.8524
2.846	6.8489
2.847	6.8454
2.848	6.842
2.849	6.8385
2.85	6.8351
2.851	6.8316
2.852	6.8282
2.853	6.8248
2.854	6.8215
2.855	6.8181
2.856	6.8148
2.857	6.8114
2.858	6.8081
2.859	6.8048
2.86	6.8016
2.861	6.7983
2.862	6.7951
2.863	6.7919
2.864	6.7887
2.865	6.7855
2.866	6.7823
2.867	6.7791
2.868	6.776
2.869	6.7729
2.87	6.7697
2.871	6.7667
2.872	6.7636
2.873	6.7605
2.874	6.7575
2.875	6.7544
2.876	6.7514
2.877	6.7484
2.878	6.7454
2.879	6.7424
2.88	6.7395
2.881	6.7365
2.882	6.7336
2.883	6.7307
2.884	6.7278
2.885	6.7249
2.886	6.722
2.887	6.7192
2.888	6.7163
2.889	6.7135
2.89	6.7107
2.891	6.7079
2.892	6.7051
2.893	6.7023
2.894	6.6996
2.895	6.6968
2.896	6.6941
2.897	6.6914
2.898	6.6887
2.899	6.686
2.9	6.6833
2.901	6.6806
2.902	6.678
2.903	6.6754
2.904	6.6727
2.905	6.6701
2.906	6.6675
2.907	6.6649
2.908	6.6624
2.909	6.6598
2.91	6.6572
2.911	6.6547
2.912	6.6522
2.913	6.6497
2.914	6.6472
2.915	6.6447
2.916	6.6422
2.917	6.6398
2.918	6.6373
2.919	6.6349
2.92	6.6324
2.921	6.63
2.922	6.6276
2.923	6.6252
2.924	6.6229
2.925	6.6205
2.926	6.6181
2.927	6.6158
2.928	6.6135
2.929	6.6111
2.93	6.6088
2.931	6.6065
2.932	6.6043
2.933	6.602
2.934	6.5997
2.935	6.5975
2.936	6.5952
2.937	6.593
2.938	6.5908
2.939	6.5886
2.94	6.5864
2.941	6.5842
2.942	6.582
2.943	6.5798
2.944	6.5777
2.945	6.5755
2.946	6.5734
2.947	6.5713
2.948	6.5691
2.949	6.567
2.95	6.5649
2.951	6.5629
2.952	6.5608
2.953	6.5587
2.954	6.5567
2.955	6.5546
2.956	6.5526
2.957	6.5506
2.958	6.5485
2.959	6.5465
2.96	6.5445
2.961	6.5426
2.962	6.5406
2.963	6.5386
2.964	6.5367
2.965	6.5347
2.966	6.5328
2.967	6.5308
2.968	6.5289
2.969	6.527
2.97	6.5251
2.971	6.5232
2.972	6.5213
2.973	6.5194
2.974	6.5176
2.975	6.5157
2.976	6.5139
2.977	6.512
2.978	6.5102
2.979	6.5084
2.98	6.5066
2.981	6.5048
2.982	6.503
2.983	6.5012
2.984	6.4994
2.985	6.4976
2.986	6.4958
2.987	6.4941
2.988	6.4923
2.989	6.4906
2.99	6.4889
2.991	6.4871
2.992	6.4854
2.993	6.4837
2.994	6.482
2.995	6.4803
2.996	6.4786
2.997	6.477
2.998	6.4753
2.999	6.4736
3	6.472
3.001	7.4467
3.002	9.8123
3.003	11.725
3.004	13.24
3.005	14.452
3.006	15.432
3.007	16.235
3.008	16.899
3.009	17.456
3.01	17.928
3.011	18.333
3.012	18.684
3.013	18.991
3.014	19.264
3.015	19.507
3.016	19.726
3.017	19.926
3.018	20.109
3.019	20.278
3.02	20.435
3.021	20.582
3.022	20.72
3.023	20.849
3.024	20.971
3.025	21.087
3.026	21.197
3.027	21.302
3.028	21.401
3.029	21.496
3.03	21.586
3.031	21.672
3.032	21.754
3.033	21.832
3.034	21.906
3.035	21.976
3.036	22.044
3.037	22.107
3.038	22.168
3.039	22.225
3.04	22.279
3.041	22.329
3.042	22.377
3.043	22.422
3.044	22.464
3.045	22.503
3.046	22.539
3.047	22.572
3.048	22.602
3.049	22.63
3.05	22.656
3.051	22.678
3.052	22.698
3.053	22.716
3.054	22.731
3.055	22.744
3.056	22.754
3.057	22.762
3.058	22.767
3.059	22.771
3.06	22.772
3.061	22.771
3.062	22.767
3.063	22.762
3.064	22.755
3.065	22.745
3.066	22.734
3.067	22.72
3.068	22.705
3.069	22.687
3.07	22.668
3.071	22.647
3.072	22.624
3.073	22.599
3.074	22.573
3.075	22.544
3.076	22.515
3.077	22.483
3.078	22.45
3.079	22.415
3.08	22.379
3.081	22.341
3.082	22.301
3.083	22.26
3.084	22.218
3.085	22.174
3.086	22.129
3.087	22.082
3.088	22.035
3.089	21.985
3.09	21.935
3.091	21.883
3.092	21.83
3.093	21.775
3.094	21.72
3.095	21.663
3.096	21.605
3.097	21.546
3.098	21.486
3.099	21.425
3.1	21.363
3.101	21.299
3.102	21.235
3.103	21.17
3.104	21.103
3.105	21.036
3.106	20.968
3.107	20.899
3.108	20.829
3.109	20.758
3.11	20.686
3.111	20.613
3.112	20.54
3.113	20.466
3.114	20.391
3.115	20.315
3.116	20.238
3.117	20.161
3.118	20.083
3.119	20.004
3.12	19.925
3.121	19.845
3.122	19.764
3.123	19.683
3.124	19.601
3.125	19.519
3.126	19.435
3.127	19.352
3.128	19.268
3.129	19.183
3.13	19.098
3.131	19.012
3.132	18.925
3.133	18.839
3.134	18.751
3.135	18.664
3.136	18.576
3.137	18.487
3.138	18.398
3.139	18.309
3.14	18.219
3.141	18.129
3.142	18.038
3.143	17.947
3.144	17.856
3.145	17.765
3.146	17.673
3.147	17.581
3.148	17.488
3.149	17.395
3.15	17.302
3.151	17.209
3.152	17.116
3.153	17.022
3.154	16.928
3.155	16.834
3.156	16.739
3.157	16.645
3.158	16.55
3.159	16.455
3.16	16.36
3.161	16.264
3.162	16.169
3.163	16.073
3.164	15.978
3.165	15.882
3.166	15.786
3.167	15.69
3.168	15.593
3.169	15.497
3.17	15.401
3.171	15.304
3.172	15.208
3.173	15.111
3.174	15.014
3.175	14.918
3.176	14.821
3.177	14.724
3.178	14.627
3.179	14.53
3.18	14.434
3.181	14.337
3.182	14.24
3.183	14.143
3.184	14.046
3.185	13.949
3.186	13.853
3.187	13.756
3.188	13.659
3.189	13.563
3.19	13.466
3.191	13.369
3.192	13.273
3.193	13.176
3.194	13.08
3.195	12.984
3.196	12.888
3.197	12.791
3.198	12.695
3.199	12.6
3.2	12.504
3.201	12.408
3.202	12.312
3.203	12.217
3.204	12.122
3.205	12.026
3.206	11.931
3.207	11.836
3.208	11.741
3.209	11.647
3.21	11.552
3.211	11.458
3.212	11.363
3.213	11.269
3.214	11.175
3.215	11.082
3.216	10.988
3.217	10.895
3.218	10.801
3.219	10.708
3.22	10.615
3.221	10.523
3.222	10.43
3.223	10.338
3.224	10.246
3.225	10.154
3.226	10.062
3.227	9.9705
3.228	9.8791
3.229	9.788
3.23	9.6971
3.231	9.6064
3.232	9.5159
3.233	9.4257
3.234	9.3356
3.235	9.2458
3.236	9.1562
3.237	9.0669
3.238	8.9778
3.239	8.8889
3.24	8.8002
3.241	8.7118
3.242	8.6236
3.243	8.5357
3.244	8.448
3.245	8.3605
3.246	8.2733
3.247	8.1864
3.248	8.0997
3.249	8.0132
3.25	7.927
3.251	7.8411
3.252	7.7554
3.253	7.67
3.254	7.5848
3.255	7.4999
3.256	7.4153
3.257	7.3309
3.258	7.2468
3.259	7.1629
3.26	7.0794
3.261	6.9961
3.262	6.913
3.263	6.8303
3.264	6.7478
3.265	6.6656
3.266	6.5837
3.267	6.502
3.268	6.4206
3.269	6.3395
3.27	6.2587
3.271	6.1782
3.272	6.0979
3.273	6.0179
3.274	5.9382
3.275	5.8588
3.276	5.7797
3.277	5.7008
3.278	5.6223
3.279	5.544
3.28	5.466
3.281	5.3883
3.282	5.3109
3.283	5.2338
3.284	5.157
3.285	5.0804
3.286	5.0042
3.287	4.9746
3.288	4.9505
3.289	4.9265
3.29	4.9027
3.291	4.8791
3.292	4.8557
3.293	4.8325
3.294	4.8095
3.295	4.7866
3.296	4.764
3.297	4.7415
3.298	4.7193
3.299	4.6972
3.3	4.6753
3.301	4.6535
3.302	4.632
3.303	4.6106
3.304	4.5894
3.305	4.5684
3.306	4.5475
3.307	4.5268
3.308	4.5063
3.309	4.4859
3.31	4.4657
3.311	4.4457
3.312	4.4258
3.313	4.4061
3.314	4.3865
3.315	4.3671
3.316	4.3479
3.317	4.3288
3.318	4.3098
3.319	4.291
3.32	4.2724
3.321	4.2539
3.322	4.2355
3.323	4.2173
3.324	4.1993
3.325	4.1813
3.326	4.1636
3.327	4.1459
3.328	4.1284
3.329	4.111
3.33	4.0938
3.331	4.0767
3.332	4.0597
3.333	4.0429
3.334	4.0261
3.335	4.0096
3.336	3.9931
3.337	3.9768
3.338	3.9605
3.339	3.9445
3.34	3.9285
3.341	3.9127
3.342	3.8969
3.343	3.8813
3.344	3.8658
3.345	3.8505
3.346	3.8352
3.347	3.8201
3.348	3.805
3.349	3.7901
3.35	3.7753
3.351	3.7606
3.352	3.7461
3.353	3.7316
3.354	3.7172
3.355	3.7029
3.356	3.6888
3.357	3.6747
3.358	3.6608
3.359	3.6469
3.36	3.6332
3.361	3.6195
3.362	3.606
3.363	3.5926
3.364	3.5792
3.365	3.5659
3.366	3.5528
3.367	3.5397
3.368	3.5268
3.369	3.5139
3.37	3.5011
3.371	3.4884
3.372	3.4758
3.373	3.4633
3.374	3.4509
3.375	3.4386
3.376	3.4263
3.377	3.4142
3.378	3.4021
3.379	3.3901
3.38	3.3782
3.381	3.3664
3.382	3.3546
3.383	3.343
3.384	3.3314
3.385	3.3199
3.386	3.3085
3.387	3.2972
3.388	3.2859
3.389	3.2748
3.39	3.2637
3.391	3.2527
3.392	3.2417
3.393	3.2308
3.394	3.22
3.395	3.2093
3.396	3.1987
3.397	3.1881
3.398	3.1776
3.399	3.1672
3.4	3.1568
3.401	3.1465
3.402	3.1363
3.403	3.1262
3.404	3.1161
3.405	3.1061
3.406	3.0961
3.407	3.0863
3.408	3.0765
3.409	3.0667
3.41	3.057
3.411	3.0474
3.412	3.0379
3.413	3.0284
3.414	3.019
3.415	3.0096
3.416	3.0003
3.417	2.9911
3.418	2.9819
3.419	2.9728
3.42	2.9637
3.421	2.9547
3.422	2.9458
3.423	2.9369
3.424	2.9281
3.425	2.9193
3.426	2.9106
3.427	2.9019
3.428	2.8934
3.429	2.8848
3.43	2.8763
3.431	2.8679
3.432	2.8595
3.433	2.8512
3.434	2.8429
3.435	2.8347
3.436	2.8266
3.437	2.8185
3.438	2.8104
3.439	2.8024
3.44	2.7944
3.441	2.7865
3.442	2.7787
3.443	2.7709
3.444	2.7631
3.445	2.7554
3.446	2.7478
3.447	2.7401
3.448	2.7326
3.449	2.7251
3.45	2.7176
3.451	2.7102
3.452	2.7028
3.453	2.6955
3.454	2.6882
3.455	2.681
3.456	2.6738
3.457	2.6666
3.458	2.6595
3.459	2.6525
3.46	2.6454
3.461	2.6385
3.462	2.6315
3.463	2.6247
3.464	2.6178
3.465	2.611
3.466	2.6042
3.467	2.5975
3.468	2.5908
3.469	2.5842
3.47	2.5776
3.471	2.5711
3.472	2.5645
3.473	2.5581
3.474	2.5516
3.475	2.5452
3.476	2.5388
3.477	2.5325
3.478	2.5262
3.479	2.52
3.48	2.5138
3.481	2.5076
3.482	2.5015
3.483	2.4954
3.484	2.4893
3.485	2.4833
3.486	2.4773
3.487	2.4713
3.488	2.4654
3.489	2.4595
3.49	2.4537
3.491	2.4478
3.492	2.4421
3.493	2.4363
3.494	2.4306
3.495	2.4249
3.496	2.4193
3.497	2.4136
3.498	2.4081
3.499	2.4025
3.5	2.397
3.501	2.3915
3.502	2.3861
3.503	2.3806
3.504	2.3752
3.505	2.3699
3.506	2.3645
3.507	2.3592
3.508	2.354
3.509	2.3487
3.51	2.3435
3.511	2.3384
3.512	2.3332
3.513	2.3281
3.514	2.323
3.515	2.3179
3.516	2.3129
3.517	2.3079
3.518	2.3029
3.519	2.298
3.52	2.2931
3.521	2.2882
3.522	2.2833
3.523	2.2785
3.524	2.2737
3.525	2.2689
3.526	2.2641
3.527	2.2594
3.528	2.2547
3.529	2.25
3.53	2.2454
3.531	2.2408
3.532	2.2362
3.533	2.2316
3.534	2.227
3.535	2.2225
3.536	2.218
3.537	2.2135
3.538	2.2091
3.539	2.2047
3.54	2.2003
3.541	2.1959
3.542	2.1916
3.543	2.1872
3.544	2.1829
3.545	2.1787
3.546	2.1744
3.547	2.1702
3.548	2.166
3.549	2.1618
3.55	2.1576
3.551	2.1535
3.552	2.1494
3.553	2.1453
3.554	2.1412
3.555	2.1371
3.556	2.1331
3.557	2.1291
3.558	2.1251
3.559	2.1212
3.56	2.1172
3.561	2.1133
3.562	2.1094
3.563	2.1055
3.564	2.1017
3.565	2.0978
3.566	2.094
3.567	2.0902
3.568	2.0864
3.569	2.0827
3.57	2.079
3.571	2.0752
3.572	2.0715
3.573	2.0679
3.574	2.0642
3.575	2.0606
3.576	2.057
3.577	2.0534
3.578	2.0498
3.579	2.0462
3.58	2.0427
3.581	2.0392
3.582	2.0356
3.583	2.0322
3.584	2.0287
3.585	2.0252
3.586	2.0218
3.587	2.0184
3.588	2.015
3.589	2.0116
3.59	2.0083
3.591	2.0049
3.592	2.0016
3.593	1.9983
3.594	1.995
3.595	1.9917
3.596	1.9885
3.597	1.9852
3.598	1.982
3.599	1.9788
3.6	1.9756
3.601	1.9724
3.602	1.9693
3.603	1.9661
3.604	1.963
3.605	1.9599
3.606	1.9568
3.607	1.9537
3.608	1.9507
3.609	1.9476
3.61	1.9446
3.611	1.9416
3.612	1.9386
3.613	1.9356
3.614	1.9326
3.615	1.9297
3.616	1.9267
3.617	1.9238
3.618	1.9209
3.619	1.918
3.62	1.9151
3.621	1.9123
3.622	1.9094
3.623	1.9066
3.624	1.9037
3.625	1.9009
3.626	1.8981
3.627	1.8954
3.628	1.8926
3.629	1.8899
3.63	1.8871
3.631	1.8844
3.632	1.8817
3.633	1.879
3.634	1.8763
3.635	1.8736
3.636	1.871
3.637	1.8683
3.638	1.8657
3.639	1.8631
3.64	1.8605
3.641	1.8579
3.642	1.8553
3.643	1.8527
3.644	1.8502
3.645	1.8476
3.646	1.8451
3.647	1.8426
3.648	1.8401
3.649	1.8376
3.65	1.8351
3.651	1.8327
3.652	1.8302
3.653	1.8278
3.654	1.8253
3.655	1.8229
3.656	1.8205
3.657	1.8181
3.658	1.8157
3.659	1.8134
3.66	1.811
3.661	1.8087
3.662	1.8063
3.663	1.804
3.664	1.8017
3.665	1.7994
3.666	1.7971
3.667	1.7948
3.668	1.7926
3.669	1.7903
3.67	1.788
3.671	1.7858
3.672	1.7836
3.673	1.7814
3.674	1.7792
3.675	1.777
3.676	1.7748
3.677	1.7726
3.678	1.7705
3.679	1.7683
3.68	1.7662
3.681	1.764
3.682	1.7619
3.683	1.7598
3.684	1.7577
3.685	1.7556
3.686	1.7535
3.687	1.7515
3.688	1.7494
3.689	1.7474
3.69	1.7453
3.691	1.7433
3.692	1.7413
3.693	1.7393
3.694	1.7373
3.695	1.7353
3.696	1.7333
3.697	1.7313
3.698	1.7293
3.699	1.7274
3.7	1.7254
3.701	1.7235
3.702	1.7216
3.703	1.7197
3.704	1.7177
3.705	1.7158
3.706	1.714
3.707	1.7121
3.708	1.7102
3.709	1.7083
3.71	1.7065
3.711	1.7046
3.712	1.7028
3.713	1.701
3.714	1.6991
3.715	1.6973
3.716	1.6955
3.717	1.6937
3.718	1.692
3.719	1.6902
3.72	1.6884
3.721	1.6866
3.722	1.6849
3.723	1.6831
3.724	1.6814
3.725	1.6797
3.726	1.678
3.727	1.6762
3.728	1.6745
3.729	1.6728
3.73	1.6711
3.731	1.6695
3.732	1.6678
3.733	1.6661
3.734	1.6645
3.735	1.6628
3.736	1.6612
3.737	1.6595
3.738	1.6579
3.739	1.6563
3.74	1.6547
3.741	1.6531
3.742	1.6515
3.743	1.6499
3.744	1.6483
3.745	1.6467
3.746	1.6452
3.747	1.6436
3.748	1.642
3.749	1.6405
3.75	1.639
3.751	1.6374
3.752	1.6359
3.753	1.6344
3.754	1.6329
3.755	1.6314
3.756	1.6299
3.757	1.6284
3.758	1.6269
3.759	1.6254
3.76	1.6239
3.761	1.6225
3.762	1.621
3.763	1.6196
3.764	1.6181
3.765	1.6167
3.766	1.6152
3.767	1.6138
3.768	1.6124
3.769	1.611
3.77	1.6096
3.771	1.6082
3.772	1.6068
3.773	1.6054
3.774	1.604
3.775	1.6026
3.776	1.6013
3.777	1.5999
3.778	1.5986
3.779	1.5972
3.78	1.5959
3.781	1.5945
3.782	1.5932
3.783	1.5919
3.784	1.5906
3.785	1.5892
3.786	1.5879
3.787	1.5866
3.788	1.5853
3.789	1.5841
3.79	1.5828
3.791	1.5815
3.792	1.5802
3.793	1.5789
3.794	1.5777
3.795	1.5764
3.796	1.5752
3.797	1.5739
3.798	1.5727
3.799	1.5715
3.8	1.5702
3.801	1.569
3.802	1.5678
3.803	1.5666
3.804	1.5654
3.805	1.5642
3.806	1.563
3.807	1.5618
3.808	1.5606
3.809	1.5594
3.81	1.5583
3.811	1.5571
3.812	1.5559
3.813	1.5548
3.814	1.5536
3.815	1.5525
3.816	1.5513
3.817	1.5502
3.818	1.5491
3.819	1.5479
3.82	1.5468
3.821	1.5457
3.822	1.5446
3.823	1.5435
3.824	1.5424
3.825	1.5413
3.826	1.5402
3.827	1.5391
3.828	1.538
3.829	1.5369
3.83	1.5358
3.831	1.5348
3.832	1.5337
3.833	1.5326
3.834	1.5316
3.835	1.5305
3.836	1.5295
3.837	1.5285
3.838	1.5274
3.839	1.5264
3.84	1.5254
3.841	1.5243
3.842	1.5233
3.843	1.5223
3.844	1.5213
3.845	1.5203
3.846	1.5193
3.847	1.5183
3.848	1.5173
3.849	1.5163
3.85	1.5153
3.851	1.5143
3.852	1.5134
3.853	1.5124
3.854	1.5114
3.855	1.5105
3.856	1.5095
3.857	1.5086
3.858	1.5076
3.859	1.5067
3.86	1.5057
3.861	1.5048
3.862	1.5038
3.863	1.5029
3.864	1.502
3.865	1.5011
3.866	1.5001
3.867	1.4992
3.868	1.4983
3.869	1.4974
3.87	1.4965
3.871	1.4956
3.872	1.4947
3.873	1.4938
3.874	1.493
3.875	1.4921
3.876	1.4912
3.877	1.4903
3.878	1.4894
3.879	1.4886
3.88	1.4877
3.881	1.4869
3.882	1.486
3.883	1.4851
3.884	1.4843
3.885	1.4835
3.886	1.4826
3.887	1.4818
3.888	1.4809
3.889	1.4801
3.89	1.4793
3.891	1.4785
3.892	1.4776
3.893	1.4768
3.894	1.476
3.895	1.4752
3.896	1.4744
3.897	1.4736
3.898	1.4728
3.899	1.472
3.9	1.4712
3.901	1.4704
3.902	1.4696
3.903	1.4689
3.904	1.4681
3.905	1.4673
3.906	1.4665
3.907	1.4658
3.908	1.465
3.909	1.4642
3.91	1.4635
3.911	1.4627
3.912	1.462
3.913	1.4612
3.914	1.4605
3.915	1.4597
3.916	1.459
3.917	1.4583
3.918	1.4575
3.919	1.4568
3.92	1.4561
3.921	1.4554
3.922	1.4546
3.923	1.4539
3.924	1.4532
3.925	1.4525
3.926	1.4518
3.927	1.4511
3.928	1.4504
3.929	1.4497
3.93	1.449
3.931	1.4483
3.932	1.4476
3.933	1.4469
3.934	1.4462
3.935	1.4455
3.936	1.4449
3.937	1.4442
3.938	1.4435
3.939	1.4429
3.94	1.4422
3.941	1.4415
3.942	1.4409
3.943	1.4402
3.944	1.4395
3.945	1.4389
3.946	1.4382
3.947	1.4376
3.948	1.437
3.949	1.4363
3.95	1.4357
3.951	1.435
3.952	1.4344
3.953	1.4338
3.954	1.4331
3.955	1.4325
3.956	1.4319
3.957	1.4313
3.958	1.4307
3.959	1.43
3.96	1.4294
3.961	1.4288
3.962	1.4282
3.963	1.4276
3.964	1.427
3.965	1.4264
3.966	1.4258
3.967	1.4252
3.968	1.4246
3.969	1.424
3.97	1.4234
3.971	1.4229
3.972	1.4223
3.973	1.4217
3.974	1.4211
3.975	1.4206
3.976	1.42
3.977	1.4194
3.978	1.4188
3.979	1.4183
3.98	1.4177
3.981	1.4172
3.982	1.4166
3.983	1.416
3.984	1.4155
3.985	1.4149
3.986	1.4144
3.987	1.4138
3.988	1.4133
3.989	1.4128
3.99	1.4122
3.991	1.4117
3.992	1.4111
3.993	1.4106
3.994	1.4101
3.995	1.4096
3.996	1.409
3.997	1.4085
3.998	1.408
3.999	1.4075
4	1.407
4.001	1.5155
4.002	1.7904
4.003	2.1244
4.004	2.5016
4.005	2.9102
4.006	3.3359
4.007	3.7626
4.008	4.1753
4.009	4.563
4.01	4.9196
4.011	5.6615
4.012	6.2591
4.013	6.7435
4.014	7.1873
4.015	7.5998
4.016	7.9864
4.017	8.3515
4.018	8.6983
4.019	9.0296
4.02	9.3476
4.021	9.6538
4.022	9.9499
4.023	10.237
4.024	10.516
4.025	10.787
4.026	11.051
4.027	11.31
4.028	11.562
4.029	11.809
4.03	12.05
4.031	12.287
4.032	12.518
4.033	12.745
4.034	12.968
4.035	13.186
4.036	13.4
4.037	13.61
4.038	13.816
4.039	14.018
4.04	14.216
4.041	14.41
4.042	14.6
4.043	14.787
4.044	14.97
4.045	15.149
4.046	15.325
4.047	15.498
4.048	15.667
4.049	15.833
4.05	15.995
4.051	16.154
4.052	16.31
4.053	16.463
4.054	16.613
4.055	16.759
4.056	16.903
4.057	17.043
4.058	17.181
4.059	17.315
4.06	17.447
4.061	17.576
4.062	17.702
4.063	17.825
4.064	17.946
4.065	18.064
4.066	18.179
4.067	18.292
4.068	18.402
4.069	18.509
4.07	18.614
4.071	18.716
4.072	18.816
4.073	18.914
4.074	19.009
4.075	19.102
4.076	19.193
4.077	19.281
4.078	19.367
4.079	19.451
4.08	19.532
4.081	19.612
4.082	19.689
4.083	19.764
4.084	19.838
4.085	19.909
4.086	19.978
4.087	20.045
4.088	20.11
4.089	20.174
4.09	20.235
4.091	20.294
4.092	20.352
4.093	20.408
4.094	20.462
4.095	20.514
4.096	20.565
4.097	20.614
4.098	20.661
4.099	20.707
4.1	20.75
4.101	20.793
4.102	20.833
4.103	20.872
4.104	20.91
4.105	20.946
4.106	20.981
4.107	21.014
4.108	21.045
4.109	21.075
4.11	21.104
4.111	21.132
4.112	21.158
4.113	21.182
4.114	21.206
4.115	21.228
4.116	21.248
4.117	21.268
4.118	21.286
4.119	21.303
4.12	21.319
4.121	21.334
4.122	21.347
4.123	21.359
4.124	21.37
4.125	21.38
4.126	21.389
4.127	21.397
4.128	21.404
4.129	21.41
4.13	21.414
4.131	21.418
4.132	21.421
4.133	21.422
4.134	21.423
4.135	21.423
4.136	21.422
4.137	21.419
4.138	21.416
4.139	21.413
4.14	21.408
4.141	21.402
4.142	21.396
4.143	21.388
4.144	21.38
4.145	21.371
4.146	21.361
4.147	21.351
4.148	21.34
4.149	21.328
4.15	21.315
4.151	21.301
4.152	21.287
4.153	21.272
4.154	21.257
4.155	21.24
4.156	21.223
4.157	21.206
4.158	21.187
4.159	21.169
4.16	21.149
4.161	21.129
4.162	21.108
4.163	21.087
4.164	21.065
4.165	21.043
4.166	21.02
4.167	20.996
4.168	20.972
4.169	20.947
4.17	20.922
4.171	20.897
4.172	20.871
4.173	20.844
4.174	20.817
4.175	20.789
4.176	20.761
4.177	20.733
4.178	20.704
4.179	20.675
4.18	20.645
4.181	20.615
4.182	20.584
4.183	20.554
4.184	20.522
4.185	20.49
4.186	20.458
4.187	20.426
4.188	20.393
4.189	20.36
4.19	20.327
4.191	20.293
4.192	20.259
4.193	20.224
4.194	20.189
4.195	20.154
4.196	20.119
4.197	20.083
4.198	20.047
4.199	20.011
4.2	19.975
4.201	19.938
4.202	19.901
4.203	19.864
4.204	19.826
4.205	19.788
4.206	19.75
4.207	19.712
4.208	19.674
4.209	19.635
4.21	19.596
4.211	19.557
4.212	19.518
4.213	19.478
4.214	19.439
4.215	19.399
4.216	19.359
4.217	19.319
4.218	19.279
4.219	19.238
4.22	19.197
4.221	19.157
4.222	19.116
4.223	19.075
4.224	19.033
4.225	18.992
4.226	18.951
4.227	18.909
4.228	18.867
4.229	18.825
4.23	18.784
4.231	18.742
4.232	18.699
4.233	18.657
4.234	18.615
4.235	18.572
4.236	18.53
4.237	18.487
4.238	18.445
4.239	18.402
4.24	18.359
4.241	18.316
4.242	18.273
4.243	18.23
4.244	18.187
4.245	18.144
4.246	18.101
4.247	18.058
4.248	18.015
4.249	17.971
4.25	17.928
4.251	17.885
4.252	17.841
4.253	17.798
4.254	17.754
4.255	17.711
4.256	17.668
4.257	17.624
4.258	17.581
4.259	17.537
4.26	17.494
4.261	17.45
4.262	17.407
4.263	17.363
4.264	17.32
4.265	17.276
4.266	17.233
4.267	17.189
4.268	17.146
4.269	17.102
4.27	17.059
4.271	17.015
4.272	16.972
4.273	16.929
4.274	16.885
4.275	16.842
4.276	16.799
4.277	16.755
4.278	16.712
4.279	16.669
4.28	16.626
4.281	16.583
4.282	16.54
4.283	16.497
4.284	16.454
4.285	16.411
4.286	16.368
4.287	16.325
4.288	16.282
4.289	16.24
4.29	16.197
4.291	16.155
4.292	16.112
4.293	16.07
4.294	16.027
4.295	15.985
4.296	15.943
4.297	15.9
4.298	15.858
4.299	15.816
4.3	15.774
4.301	15.732
4.302	15.69
4.303	15.649
4.304	15.607
4.305	15.565
4.306	15.524
4.307	15.482
4.308	15.441
4.309	15.4
4.31	15.358
4.311	15.317
4.312	15.276
4.313	15.235
4.314	15.194
4.315	15.154
4.316	15.113
4.317	15.072
4.318	15.032
4.319	14.991
4.32	14.951
4.321	14.911
4.322	14.871
4.323	14.831
4.324	14.791
4.325	14.751
4.326	14.711
4.327	14.671
4.328	14.632
4.329	14.592
4.33	14.553
4.331	14.514
4.332	14.474
4.333	14.435
4.334	14.396
4.335	14.358
4.336	14.319
4.337	14.28
4.338	14.242
4.339	14.203
4.34	14.165
4.341	14.127
4.342	14.089
4.343	14.051
4.344	14.013
4.345	13.975
4.346	13.937
4.347	13.9
4.348	13.862
4.349	13.825
4.35	13.788
4.351	13.75
4.352	13.713
4.353	13.677
4.354	13.64
4.355	13.603
4.356	13.567
4.357	13.53
4.358	13.494
4.359	13.458
4.36	13.421
4.361	13.385
4.362	13.35
4.363	13.314
4.364	13.278
4.365	13.243
4.366	13.207
4.367	13.172
4.368	13.137
4.369	13.102
4.37	13.067
4.371	13.032
4.372	12.997
4.373	12.963
4.374	12.928
4.375	12.894
4.376	12.859
4.377	12.825
4.378	12.791
4.379	12.757
4.38	12.724
4.381	12.69
4.382	12.656
4.383	12.623
4.384	12.59
4.385	12.556
4.386	12.523
4.387	12.49
4.388	12.458
4.389	12.425
4.39	12.392
4.391	12.36
4.392	12.327
4.393	12.295
4.394	12.263
4.395	12.231
4.396	12.199
4.397	12.167
4.398	12.136
4.399	12.104
4.4	12.073
4.401	12.041
4.402	12.01
4.403	11.979
4.404	11.948
4.405	11.917
4.406	11.887
4.407	11.856
4.408	11.825
4.409	11.795
4.41	11.765
4.411	11.735
4.412	11.705
4.413	11.675
4.414	11.645
4.415	11.615
4.416	11.586
4.417	11.556
4.418	11.527
4.419	11.498
4.42	11.469
4.421	11.44
4.422	11.411
4.423	11.382
4.424	11.353
4.425	11.325
4.426	11.296
4.427	11.268
4.428	11.24
4.429	11.212
4.43	11.184
4.431	11.156
4.432	11.128
4.433	11.101
4.434	11.073
4.435	11.046
4.436	11.018
4.437	10.991
4.438	10.964
4.439	10.937
4.44	10.91
4.441	10.884
4.442	10.857
4.443	10.83
4.444	10.804
4.445	10.778
4.446	10.751
4.447	10.725
4.448	10.699
4.449	10.674
4.45	10.648
4.451	10.622
4.452	10.597
4.453	10.571
4.454	10.546
4.455	10.521
4.456	10.496
4.457	10.471
4.458	10.446
4.459	10.421
4.46	10.396
4.461	10.372
4.462	10.347
4.463	10.323
4.464	10.299
4.465	10.274
4.466	10.25
4.467	10.226
4.468	10.203
4.469	10.179
4.47	10.155
4.471	10.132
4.472	10.108
4.473	10.085
4.474	10.062
4.475	10.038
4.476	10.015
4.477	9.9925
4.478	9.9697
4.479	9.947
4.48	9.9244
4.481	9.9018
4.482	9.8794
4.483	9.8571
4.484	9.8348
4.485	9.8127
4.486	9.7907
4.487	9.7687
4.488	9.7469
4.489	9.7251
4.49	9.7035
4.491	9.6819
4.492	9.6605
4.493	9.6391
4.494	9.6179
4.495	9.5967
4.496	9.5756
4.497	9.5546
4.498	9.5338
4.499	9.513
4.5	9.4923
4.501	9.4717
4.502	9.4512
4.503	9.4307
4.504	9.4104
4.505	9.3902
4.506	9.37
4.507	9.35
4.508	9.33
4.509	9.3102
4.51	9.2904
4.511	9.2707
4.512	9.2511
4.513	9.2316
4.514	9.2122
4.515	9.1928
4.516	9.1736
4.517	9.1544
4.518	9.1354
4.519	9.1164
4.52	9.0975
4.521	9.0787
4.522	9.06
4.523	9.0413
4.524	9.0228
4.525	9.0043
4.526	8.9859
4.527	8.9676
4.528	8.9494
4.529	8.9313
4.53	8.9133
4.531	8.8953
4.532	8.8774
4.533	8.8597
4.534	8.8419
4.535	8.8243
4.536	8.8068
4.537	8.7893
4.538	8.7719
4.539	8.7546
4.54	8.7374
4.541	8.7203
4.542	8.7032
4.543	8.6863
4.544	8.6694
4.545	8.6525
4.546	8.6358
4.547	8.6191
4.548	8.6026
4.549	8.5861
4.55	8.5696
4.551	8.5533
4.552	8.537
4.553	8.5208
4.554	8.5047
4.555	8.4886
4.556	8.4727
4.557	8.4568
4.558	8.441
4.559	8.4252
4.56	8.4096
4.561	8.394
4.562	8.3784
4.563	8.363
4.564	8.3476
4.565	8.3323
4.566	8.3171
4.567	8.3019
4.568	8.2869
4.569	8.2719
4.57	8.2569
4.571	8.242
4.572	8.2273
4.573	8.2125
4.574	8.1979
4.575	8.1833
4.576	8.1688
4.577	8.1543
4.578	8.1399
4.579	8.1256
4.58	8.1114
4.581	8.0972
4.582	8.0831
4.583	8.0691
4.584	8.0551
4.585	8.0412
4.586	8.0274
4.587	8.0136
4.588	7.9999
4.589	7.9863
4.59	7.9727
4.591	7.9592
4.592	7.9457
4.593	7.9324
4.594	7.9191
4.595	7.9058
4.596	7.8926
4.597	7.8795
4.598	7.8664
4.599	7.8534
4.6	7.8405
4.601	7.8276
4.602	7.8148
4.603	7.8021
4.604	7.7894
4.605	7.7768
4.606	7.7642
4.607	7.7517
4.608	7.7393
4.609	7.7269
4.61	7.7146
4.611	7.7023
4.612	7.6901
4.613	7.678
4.614	7.6659
4.615	7.6539
4.616	7.6419
4.617	7.63
4.618	7.6182
4.619	7.6064
4.62	7.5947
4.621	7.583
4.622	7.5714
4.623	7.5598
4.624	7.5483
4.625	7.5368
4.626	7.5255
4.627	7.5141
4.628	7.5028
4.629	7.4916
4.63	7.4804
4.631	7.4693
4.632	7.4583
4.633	7.4472
4.634	7.4363
4.635	7.4254
4.636	7.4145
4.637	7.4037
4.638	7.393
4.639	7.3823
4.64	7.3717
4.641	7.3611
4.642	7.3505
4.643	7.3401
4.644	7.3296
4.645	7.3193
4.646	7.3089
4.647	7.2986
4.648	7.2884
4.649	7.2782
4.65	7.2681
4.651	7.258
4.652	7.248
4.653	7.238
4.654	7.2281
4.655	7.2182
4.656	7.2084
4.657	7.1986
4.658	7.1889
4.659	7.1792
4.66	7.1695
4.661	7.1599
4.662	7.1504
4.663	7.1409
4.664	7.1314
4.665	7.122
4.666	7.1127
4.667	7.1033
4.668	7.0941
4.669	7.0849
4.67	7.0757
4.671	7.0665
4.672	7.0575
4.673	7.0484
4.674	7.0394
4.675	7.0305
4.676	7.0216
4.677	7.0127
4.678	7.0039
4.679	6.9951
4.68	6.9863
4.681	6.9777
4.682	6.969
4.683	6.9604
4.684	6.9518
4.685	6.9433
4.686	6.9348
4.687	6.9264
4.688	6.918
4.689	6.9096
4.69	6.9013
4.691	6.8931
4.692	6.8848
4.693	6.8766
4.694	6.8685
4.695	6.8604
4.696	6.8523
4.697	6.8443
4.698	6.8363
4.699	6.8283
4.7	6.8204
4.701	6.8125
4.702	6.8047
4.703	6.7969
4.704	6.7892
4.705	6.7814
4.706	6.7738
4.707	6.7661
4.708	6.7585
4.709	6.7509
4.71	6.7434
4.711	6.7359
4.712	6.7285
4.713	6.721
4.714	6.7137
4.715	6.7063
4.716	6.699
4.717	6.6917
4.718	6.6845
4.719	6.6773
4.72	6.6701
4.721	6.663
4.722	6.6559
4.723	6.6488
4.724	6.6418
4.725	6.6348
4.726	6.6278
4.727	6.6209
4.728	6.614
4.729	6.6072
4.73	6.6004
4.731	6.5936
4.732	6.5868
4.733	6.5801
4.734	6.5734
4.735	6.5668
4.736	6.5601
4.737	6.5535
4.738	6.547
4.739	6.5405
4.74	6.534
4.741	6.5275
4.742	6.5211
4.743	6.5147
4.744	6.5083
4.745	6.502
4.746	6.4957
4.747	6.4894
4.748	6.4832
4.749	6.477
4.75	6.4708
4.751	6.4646
4.752	6.4585
4.753	6.4524
4.754	6.4464
4.755	6.4404
4.756	6.4344
4.757	6.4284
4.758	6.4224
4.759	6.4165
4.76	6.4107
4.761	6.4048
4.762	6.399
4.763	6.3932
4.764	6.3874
4.765	6.3817
4.766	6.376
4.767	6.3703
4.768	6.3646
4.769	6.359
4.77	6.3534
4.771	6.3478
4.772	6.3423
4.773	6.3368
4.774	6.3313
4.775	6.3258
4.776	6.3204
4.777	6.315
4.778	6.3096
4.779	6.3042
4.78	6.2989
4.781	6.2936
4.782	6.2883
4.783	6.2831
4.784	6.2779
4.785	6.2727
4.786	6.2675
4.787	6.2623
4.788	6.2572
4.789	6.2521
4.79	6.247
4.791	6.242
4.792	6.237
4.793	6.232
4.794	6.227
4.795	6.222
4.796	6.2171
4.797	6.2122
4.798	6.2073
4.799	6.2025
4.8	6.1976
4.801	6.1928
4.802	6.188
4.803	6.1833
4.804	6.1785
4.805	6.1738
4.806	6.1691
4.807	6.1645
4.808	6.1598
4.809	6.1552
4.81	6.1506
4.811	6.146
4.812	6.1415
4.813	6.1369
4.814	6.1324
4.815	6.1279
4.816	6.1235
4.817	6.119
4.818	6.1146
4.819	6.1102
4.82	6.1058
4.821	6.1014
4.822	6.0971
4.823	6.0928
4.824	6.0885
4.825	6.0842
4.826	6.0799
4.827	6.0757
4.828	6.0715
4.829	6.0673
4.83	6.0631
4.831	6.059
4.832	6.0548
4.833	6.0507
4.834	6.0466
4.835	6.0426
4.836	6.0385
4.837	6.0345
4.838	6.0304
4.839	6.0264
4.84	6.0225
4.841	6.0185
4.842	6.0146
4.843	6.0107
4.844	6.0067
4.845	6.0029
4.846	5.999
4.847	5.9952
4.848	5.9913
4.849	5.9875
4.85	5.9837
4.851	5.98
4.852	5.9762
4.853	5.9725
4.854	5.9687
4.855	5.965
4.856	5.9614
4.857	5.9577
4.858	5.9541
4.859	5.9504
4.86	5.9468
4.861	5.9432
4.862	5.9396
4.863	5.9361
4.864	5.9325
4.865	5.929
4.866	5.9255
4.867	5.922
4.868	5.9185
4.869	5.9151
4.87	5.9116
4.871	5.9082
4.872	5.9048
4.873	5.9014
4.874	5.898
4.875	5.8946
4.876	5.8913
4.877	5.888
4.878	5.8846
4.879	5.8813
4.88	5.8781
4.881	5.8748
4.882	5.8715
4.883	5.8683
4.884	5.8651
4.885	5.8619
4.886	5.8587
4.887	5.8555
4.888	5.8523
4.889	5.8492
4.89	5.846
4.891	5.8429
4.892	5.8398
4.893	5.8367
4.894	5.8337
4.895	5.8306
4.896	5.8276
4.897	5.8245
4.898	5.8215
4.899	5.8185
4.9	5.8155
4.901	5.8125
4.902	5.8096
4.903	5.8066
4.904	5.8037
4.905	5.8008
4.906	5.7979
4.907	5.795
4.908	5.7921
4.909	5.7892
4.91	5.7864
4.911	5.7835
4.912	5.7807
4.913	5.7779
4.914	5.7751
4.915	5.7723
4.916	5.7695
4.917	5.7668
4.918	5.764
4.919	5.7613
4.92	5.7586
4.921	5.7558
4.922	5.7531
4.923	5.7505
4.924	5.7478
4.925	5.7451
4.926	5.7425
4.927	5.7398
4.928	5.7372
4.929	5.7346
4.93	5.732
4.931	5.7294
4.932	5.7268
4.933	5.7243
4.934	5.7217
4.935	5.7192
4.936	5.7166
4.937	5.7141
4.938	5.7116
4.939	5.7091
4.94	5.7066
4.941	5.7042
4.942	5.7017
4.943	5.6993
4.944	5.6968
4.945	5.6944
4.946	5.692
4.947	5.6896
4.948	5.6872
4.949	5.6848
4.95	5.6824
4.951	5.68
4.952	5.6777
4.953	5.6753
4.954	5.673
4.955	5.6707
4.956	5.6684
4.957	5.6661
4.958	5.6638
4.959	5.6615
4.96	5.6592
4.961	5.657
4.962	5.6547
4.963	5.6525
4.964	5.6503
4.965	5.648
4.966	5.6458
4.967	5.6436
4.968	5.6414
4.969	5.6393
4.97	5.6371
4.971	5.6349
4.972	5.6328
4.973	5.6306
4.974	5.6285
4.975	5.6264
4.976	5.6243
4.977	5.6222
4.978	5.6201
4.979	5.618
4.98	5.6159
4.981	5.6138
4.982	5.6118
4.983	5.6097
4.984	5.6077
4.985	5.6056
4.986	5.6036
4.987	5.6016
4.988	5.5996
4.989	5.5976
4.99	5.5956
4.991	5.5936
4.992	5.5917
4.993	5.5897
4.994	5.5878
4.995	5.5858
4.996	5.5839
4.997	5.5819
4.998	5.58
4.999	5.5781
5	5.5762
