\relax 
\citation{CoopManipHandbook}
\citation{Schneider_92}
\citation{Bonitz_96}
\citation{Caccavale_08}
\citation{Heck_13}
\citation{Stramigioli_15}
\citation{Stramigioli_01}
\citation{Wimboeck_06}
\citation{Wimboeck_06}
\citation{Lawton_03}
\citation{Vos_14}
\citation{Stramigioli_15}
\citation{Geravand_16}
\citation{Scheggi_14}
\citation{Hirche_12}
\citation{Stramigioli_15}
\citation{Lee_10}
\citation{Franken_11}
\citation{Ortega_99}
\citation{Wood_71,Yoganandan_96}
\citation{Laffranchi_09}
\citation{Tadele_14}
\citation{Geravand_16}
\citation{Sieber_15}
\citation{Gioioso_2014}
\citation{Varnell_13}
\citation{Hirche_12}
\citation{Varnell_13,Hatanaka_15}
\citation{vanderSchaft_06}
\@writefile{toc}{\contentsline {section}{\numberline {I}Introduction}{1}}
\@writefile{toc}{\contentsline {section}{\numberline {II}Theoretical background}{1}}
\@writefile{toc}{\contentsline {subsection}{\numberline {\unhbox \voidb@x \hbox {II-A}}port-Hamiltonian framework}{1}}
\citation{Stramigioli_15}
\citation{Stramigioli_01}
\citation{Stramigioli_01}
\@writefile{lof}{\contentsline {figure}{\numberline {1}{\ignorespaces The controller as virtual structure connecting user input and robots}}{2}}
\newlabel{EQ:generalPHS}{{1}{2}}
\newlabel{EQ:E_balance_generalPHS}{{2}{2}}
\newlabel{FIG:VirtualStructure}{{\unhbox \voidb@x \hbox {II-A}}{2}}
\@writefile{toc}{\contentsline {subsection}{\numberline {\unhbox \voidb@x \hbox {II-B}}Twists and wrenches}{2}}
\newlabel{EQ:coordchange}{{3}{2}}
\@writefile{toc}{\contentsline {subsection}{\numberline {\unhbox \voidb@x \hbox {II-C}}port-Hamiltonian formulation of mechanical elements}{2}}
\newlabel{SS:pHElements}{{\unhbox \voidb@x \hbox {II-C}}{2}}
\@writefile{toc}{\contentsline {subsubsection}{\numberline {\unhbox \voidb@x \hbox {II-C}1}Springs}{2}}
\newlabel{EQ:SpringEnergyFunction}{{8}{2}}
\@writefile{toc}{\contentsline {subsubsection}{\numberline {\unhbox \voidb@x \hbox {II-C}2}Inertias}{2}}
\newlabel{EQ:pHInertia}{{11}{2}}
\newlabel{SSS:Dampers}{{\unhbox \voidb@x \hbox {II-C}3}{2}}
\@writefile{toc}{\contentsline {subsubsection}{\numberline {\unhbox \voidb@x \hbox {II-C}3}Dampers}{2}}
\citation{Ott_04}
\citation{Schaft_13}
\@writefile{lof}{\contentsline {figure}{\numberline {2}{\ignorespaces Virtual structure of the constrained dynamic IPC (dampers along the springs not shown): The virtual object $b$ in the centre is connected with springs (and dampers) to the human hand frame $\Psi _v$ and to each end-effector associated with frames $\Psi _i, \tmspace  +\thinmuskip {.1667em} i=1..N$. Every end-effector is modelled with a virtual inertia ${b_i}$ attached rigidly to the object $b$. }}{3}}
\newlabel{FIG:admittancecontrol}{{2}{3}}
\@writefile{toc}{\contentsline {section}{\numberline {III}port-Hamiltoninan model-based control}{3}}
\newlabel{S:ControlDesign}{{III}{3}}
\@writefile{toc}{\contentsline {subsection}{\numberline {\unhbox \voidb@x \hbox {III-A}}Model-based control design}{3}}
\@writefile{toc}{\contentsline {subsection}{\numberline {\unhbox \voidb@x \hbox {III-B}}port-Hamiltonian formulation of the controller}{3}}
\newlabel{EQ:constrainedPHS}{{16}{3}}
\@writefile{toc}{\contentsline {subsection}{\numberline {\unhbox \voidb@x \hbox {III-C}}Elimination of constraints}{4}}
\newlabel{EQ:constraintderivative}{{19}{4}}
\newlabel{EQ:adjointmapping}{{20}{4}}
\newlabel{EQ:lambda_solved}{{22}{4}}
\@writefile{toc}{\contentsline {section}{\numberline {IV}Energy regulating control}{4}}
\newlabel{S:EnergyRegulation}{{IV}{4}}
\@writefile{lof}{\contentsline {figure}{\numberline {3}{\ignorespaces The energy tank supplies the passive controller, while the human user is energetically decoupled but controls the flow of energy. All energy to the robots flows through the controller. The model-based controller monitors the energetic state and limits the energy supply if necessary to ensure stable operation regardless the human behaviour.}}{4}}
\newlabel{FIG:tanksystem}{{3}{4}}
\@writefile{toc}{\contentsline {subsection}{\numberline {\unhbox \voidb@x \hbox {IV-A}}Energy tanks}{4}}
\newlabel{S:EnergyTanks}{{\unhbox \voidb@x \hbox {IV-A}}{4}}
\newlabel{EQ:tankpower}{{27}{4}}
\newlabel{EQ:mtf}{{28}{4}}
\newlabel{EQ:TankInterconnection}{{30}{4}}
\@writefile{toc}{\contentsline {subsection}{\numberline {\unhbox \voidb@x \hbox {IV-B}}Energy shaped stiffness and damping}{5}}
\newlabel{SS:EnergyAdaptedStiffness}{{\unhbox \voidb@x \hbox {IV-B}}{5}}
\@writefile{toc}{\contentsline {subsection}{\numberline {\unhbox \voidb@x \hbox {IV-C}}Automatic compensation for drained energy}{5}}
\newlabel{SS:EnergyExchangeEnvironment}{{\unhbox \voidb@x \hbox {IV-C}}{5}}
\citation{Caccavale_08}
\citation{Wimboeck_08}
\@input{plots/TrajCmpLin.aux}
\@input{plots/TrajCmpAng.aux}
\@input{plots/EBTT.aux}
\bibstyle{ieeetran}
\bibdata{mybib}
\bibcite{CoopManipHandbook}{1}
\bibcite{Schneider_92}{2}
\bibcite{Bonitz_96}{3}
\bibcite{Caccavale_08}{4}
\bibcite{Heck_13}{5}
\@writefile{toc}{\contentsline {section}{\numberline {V}Results}{6}}
\@writefile{toc}{\contentsline {subsection}{\numberline {\unhbox \voidb@x \hbox {V-A}}Trajectory tracking}{6}}
\@writefile{toc}{\contentsline {subsection}{\numberline {\unhbox \voidb@x \hbox {V-B}}Energy-bounded trajectory tracking}{6}}
\@writefile{toc}{\contentsline {section}{\numberline {VI}Conclusion}{6}}
\@writefile{lof}{\contentsline {figure}{\numberline {4}{\ignorespaces Comparison of trajectory tracking for a linear motion. The reference trajectory coincides with the red one.}}{6}}
\newlabel{FIG:ResTranslation}{{4}{6}}
\@writefile{lof}{\contentsline {figure}{\numberline {5}{\ignorespaces Comparison of trajectory tracking for a rotation. The reference trajectory coincides with the red one.}}{6}}
\newlabel{FIG:ResRotation}{{5}{6}}
\@writefile{toc}{\contentsline {section}{References}{6}}
\bibcite{Stramigioli_15}{6}
\bibcite{Stramigioli_01}{7}
\bibcite{Wimboeck_06}{8}
\bibcite{Lawton_03}{9}
\bibcite{Vos_14}{10}
\bibcite{Geravand_16}{11}
\bibcite{Scheggi_14}{12}
\bibcite{Hirche_12}{13}
\bibcite{Lee_10}{14}
\bibcite{Franken_11}{15}
\bibcite{Ortega_99}{16}
\bibcite{Wood_71}{17}
\bibcite{Yoganandan_96}{18}
\bibcite{Laffranchi_09}{19}
\bibcite{Tadele_14}{20}
\bibcite{Sieber_15}{21}
\bibcite{Gioioso_2014}{22}
\bibcite{Varnell_13}{23}
\bibcite{Hatanaka_15}{24}
\bibcite{vanderSchaft_06}{25}
\bibcite{Ott_04}{26}
\bibcite{Schaft_13}{27}
\bibcite{Wimboeck_08}{28}
