\relax 
\catcode `"\active 
\citation{Sieber_15}
\citation{Gioioso_2014}
\citation{Varnell13}
\citation{Hirche_12}
\citation{Stramigioli_15}
\citation{Hirche_12}
\citation{Varnell13}
\citation{Stramigioli_15}
\select@language{ngerman}
\@writefile{toc}{\select@language{ngerman}}
\@writefile{lof}{\select@language{ngerman}}
\@writefile{lot}{\select@language{ngerman}}
\@writefile{toc}{\contentsline {section}{\numberline {I}Introduction}{1}}
\@writefile{toc}{\contentsline {section}{\numberline {II}port-Hamiltonian modelling}{1}}
\newlabel{EQ:generalPHS}{{1}{1}}
\newlabel{FIG:VirtualStructure}{{II}{1}}
\@writefile{toc}{\contentsline {subsection}{\numberline {\unhbox \voidb@x \hbox {II-A}}Coordinates, twists and wrenches}{1}}
\citation{Stramigioli_01}
\citation{Ott_04}
\newlabel{EQ:coordchange}{{3}{2}}
\@writefile{toc}{\contentsline {subsection}{\numberline {\unhbox \voidb@x \hbox {II-B}}pH-formulation of mechanical elements}{2}}
\@writefile{toc}{\contentsline {subsubsection}{\numberline {\unhbox \voidb@x \hbox {II-B}1}Springs}{2}}
\newlabel{EQ:SpringEnergyFunction}{{6}{2}}
\@writefile{toc}{\contentsline {subsubsection}{\numberline {\unhbox \voidb@x \hbox {II-B}2}Inertias}{2}}
\newlabel{EQ:pHInertia}{{9}{2}}
\newlabel{SSS:Dampers}{{\unhbox \voidb@x \hbox {II-B}3}{2}}
\@writefile{toc}{\contentsline {subsubsection}{\numberline {\unhbox \voidb@x \hbox {II-B}3}Dampers}{2}}
\@writefile{toc}{\contentsline {section}{\numberline {III}Control design}{2}}
\citation{Schaft_13}
\@writefile{toc}{\contentsline {subsection}{\numberline {\unhbox \voidb@x \hbox {III-A}}Elimination of constraints}{3}}
\newlabel{EQ:constrainedPHS}{{13}{3}}
\newlabel{EQ:constraintderivative}{{14}{3}}
\@writefile{lof}{\contentsline {figure}{\numberline {1}{\ignorespaces Virtual structure of the constrained dynamic IPC}}{3}}
\newlabel{FIG:admittancecontrol}{{1}{3}}
\newlabel{EQ:DiffConstraints}{{16}{3}}
\newlabel{EQ:adjointmapping}{{17}{3}}
\@writefile{toc}{\contentsline {subsection}{\numberline {\unhbox \voidb@x \hbox {III-B}}Constrained dynamic IPC}{3}}
\citation{Wimboeck_08}
\@writefile{toc}{\contentsline {section}{\numberline {IV}Energy regulating control}{4}}
\newlabel{S:EnergyRegulation}{{IV}{4}}
\@writefile{toc}{\contentsline {subsection}{\numberline {\unhbox \voidb@x \hbox {IV-A}}Energy tanks}{4}}
\newlabel{S:EnergyTanks}{{\unhbox \voidb@x \hbox {IV-A}}{4}}
\newlabel{EQ:tankpower}{{25}{4}}
\newlabel{EQ:TankInterconnection}{{28}{4}}
\citation{Stramigioli_01c}
\@writefile{toc}{\contentsline {subsection}{\numberline {\unhbox \voidb@x \hbox {IV-B}}Energy-adapted stiffness and damping}{5}}
\newlabel{SS:EnergyAdaptedStiffness}{{\unhbox \voidb@x \hbox {IV-B}}{5}}
\citation{Erhart_16}
\citation{Caccavale_08}
\citation{Wimboeck_08}
\@input{TrajCmpLin.aux}
\@input{TrajCmpAng.aux}
\@input{EBTT.aux}
