\relax 
\citation{Sieber_15}
\citation{Gioioso_2014}
\citation{Varnell_13}
\citation{Hirche_12}
\citation{Stramigioli_15}
\citation{Hirche_12}
\citation{Varnell_13,Hatanaka_15}
\citation{Stramigioli_15}
\@writefile{toc}{\contentsline {section}{\numberline {I}Introduction}{1}}
\@writefile{toc}{\contentsline {section}{\numberline {II}port-Hamiltonian modelling}{1}}
\newlabel{EQ:generalPHS}{{1}{1}}
\newlabel{FIG:VirtualStructure}{{II}{1}}
\@writefile{toc}{\contentsline {subsection}{\numberline {\unhbox \voidb@x \hbox {II-A}}Coordinates, twists and wrenches}{1}}
\newlabel{EQ:coordchange}{{3}{1}}
\citation{Stramigioli_01}
\citation{Ott_04}
\citation{Schaft_13}
\@writefile{toc}{\contentsline {subsection}{\numberline {\unhbox \voidb@x \hbox {II-B}}pH-formulation of mechanical elements}{2}}
\@writefile{toc}{\contentsline {subsubsection}{\numberline {\unhbox \voidb@x \hbox {II-B}1}Springs}{2}}
\newlabel{EQ:SpringEnergyFunction}{{6}{2}}
\@writefile{toc}{\contentsline {subsubsection}{\numberline {\unhbox \voidb@x \hbox {II-B}2}Inertias}{2}}
\newlabel{EQ:pHInertia}{{9}{2}}
\newlabel{SSS:Dampers}{{\unhbox \voidb@x \hbox {II-B}3}{2}}
\@writefile{toc}{\contentsline {subsubsection}{\numberline {\unhbox \voidb@x \hbox {II-B}3}Dampers}{2}}
\@writefile{toc}{\contentsline {section}{\numberline {III}Control design}{2}}
\@writefile{toc}{\contentsline {subsection}{\numberline {\unhbox \voidb@x \hbox {III-A}}Elimination of constraints}{2}}
\newlabel{EQ:constrainedPHS}{{13}{2}}
\newlabel{EQ:constraintderivative}{{14}{2}}
\citation{Wimboeck_08}
\@writefile{lof}{\contentsline {figure}{\numberline {1}{\ignorespaces Virtual structure of the constrained dynamic IPC}}{3}}
\newlabel{FIG:admittancecontrol}{{1}{3}}
\newlabel{EQ:DiffConstraints}{{16}{3}}
\newlabel{EQ:adjointmapping}{{17}{3}}
\@writefile{toc}{\contentsline {subsection}{\numberline {\unhbox \voidb@x \hbox {III-B}}Constrained dynamic IPC}{3}}
\@writefile{toc}{\contentsline {section}{\numberline {IV}Energy regulating control}{3}}
\newlabel{S:EnergyRegulation}{{IV}{3}}
\@writefile{toc}{\contentsline {subsection}{\numberline {\unhbox \voidb@x \hbox {IV-A}}Energy tanks}{3}}
\newlabel{S:EnergyTanks}{{\unhbox \voidb@x \hbox {IV-A}}{3}}
\citation{Stramigioli_01c}
\newlabel{EQ:tankpower}{{25}{4}}
\newlabel{EQ:TankInterconnection}{{28}{4}}
\@writefile{toc}{\contentsline {subsection}{\numberline {\unhbox \voidb@x \hbox {IV-B}}Energy-adapted stiffness and damping}{4}}
\newlabel{SS:EnergyAdaptedStiffness}{{\unhbox \voidb@x \hbox {IV-B}}{4}}
\citation{Erhart_16}
\citation{Caccavale_08}
\citation{Wimboeck_08}
\@input{TrajCmpLin.aux}
\@input{TrajCmpAng.aux}
\@input{EBTT.aux}
\bibstyle{ieeetran}
\bibdata{mybib}
\@writefile{toc}{\contentsline {subsection}{\numberline {\unhbox \voidb@x \hbox {IV-C}}Automatic compensation for drained energy}{5}}
\newlabel{SS:EnergyExchangeEnvironment}{{\unhbox \voidb@x \hbox {IV-C}}{5}}
\@writefile{toc}{\contentsline {section}{\numberline {V}Results}{5}}
\@writefile{toc}{\contentsline {subsection}{\numberline {\unhbox \voidb@x \hbox {V-A}}Trajectory tracking}{5}}
\@writefile{toc}{\contentsline {section}{\numberline {VI}Energy-bounded trajectory tracking}{5}}
\bibcite{Sieber_15}{1}
\bibcite{Gioioso_2014}{2}
\bibcite{Varnell_13}{3}
\bibcite{Hirche_12}{4}
\bibcite{Stramigioli_15}{5}
\bibcite{Hatanaka_15}{6}
\bibcite{Stramigioli_01}{7}
\bibcite{Ott_04}{8}
\bibcite{Schaft_13}{9}
\bibcite{Wimboeck_08}{10}
\bibcite{Stramigioli_01c}{11}
\bibcite{Erhart_16}{12}
\bibcite{Caccavale_08}{13}
\@writefile{toc}{\contentsline {section}{\numberline {VII}Conclusion}{6}}
\@writefile{toc}{\contentsline {section}{References}{6}}
