\relax 
\@setckpt{pics/blockscheme}{
\setcounter{page}{4}
\setcounter{equation}{23}
\setcounter{enumi}{0}
\setcounter{enumii}{0}
\setcounter{enumiii}{0}
\setcounter{enumiv}{0}
\setcounter{footnote}{0}
\setcounter{mpfootnote}{0}
\setcounter{section}{4}
\setcounter{subsection}{0}
\setcounter{subsubsection}{0}
\setcounter{paragraph}{0}
\setcounter{IEEEsubequation}{0}
\setcounter{figure}{1}
\setcounter{table}{0}
\setcounter{biography}{0}
\setcounter{float@type}{4}
\setcounter{parentequation}{0}
}
