\relax 
\@setckpt{plots/TrajCmpAng}{
\setcounter{page}{6}
\setcounter{equation}{45}
\setcounter{enumi}{4}
\setcounter{enumii}{0}
\setcounter{enumiii}{0}
\setcounter{enumiv}{0}
\setcounter{footnote}{0}
\setcounter{mpfootnote}{0}
\setcounter{section}{5}
\setcounter{subsection}{1}
\setcounter{subsubsection}{0}
\setcounter{paragraph}{0}
\setcounter{IEEEsubequation}{0}
\setcounter{figure}{4}
\setcounter{table}{0}
\setcounter{IEEEbiography}{0}
\setcounter{float@type}{4}
\setcounter{parentequation}{0}
}
