\relax 
\@setckpt{plots/wTank1}{
\setcounter{page}{7}
\setcounter{equation}{43}
\setcounter{enumi}{3}
\setcounter{enumii}{0}
\setcounter{enumiii}{0}
\setcounter{enumiv}{0}
\setcounter{footnote}{0}
\setcounter{mpfootnote}{0}
\setcounter{section}{5}
\setcounter{subsection}{0}
\setcounter{subsubsection}{0}
\setcounter{paragraph}{0}
\setcounter{IEEEsubequation}{0}
\setcounter{figure}{3}
\setcounter{table}{1}
\setcounter{biography}{0}
\setcounter{float@type}{4}
\setcounter{parentequation}{0}
}
