\relax 
\citation{IEEEbst:control}
\citation{05leeth}
\citation{06antonelli}
\citation{vanderSchaft_06}
\citation{Franken_11}
\citation{Geravand_16}
\citation{98stramigioli}
\citation{Vos_14}
\citation{Ortega_99}
\citation{08ortega}
\citation{12franchi}
\citation{Laffranchi_09}
\citation{Tadele_14}
\@writefile{toc}{\contentsline {section}{\numberline {I}Introduction}{1}}
\citation{vanderSchaft_06}
\citation{Stramigioli_01}
\citation{Stramigioli_01}
\@writefile{toc}{\contentsline {section}{\numberline {II}Background}{2}}
\newlabel{sec:background}{{II}{2}}
\@writefile{toc}{\contentsline {subsection}{\numberline {II-A}port-Hamiltonian framework}{2}}
\newlabel{EQ:generalPHS}{{1}{2}}
\newlabel{EQ:E_balance_generalPHS}{{2}{2}}
\@writefile{toc}{\contentsline {subsection}{\numberline {II-B}Twists and wrenches}{2}}
\newlabel{EQ:coordchange}{{3}{2}}
\@writefile{toc}{\contentsline {subsection}{\numberline {II-C}port-Hamiltonian formulation of mechanical elements}{2}}
\newlabel{SS:pHElements}{{II-C}{2}}
\@writefile{toc}{\contentsline {subsubsection}{\numberline {II-C.1}Springs}{2}}
\newlabel{EQ:SpringEnergyFunction}{{8}{2}}
\@writefile{toc}{\contentsline {subsubsection}{\numberline {II-C.2}Inertias}{2}}
\newlabel{EQ:pHInertia}{{11}{2}}
\citation{Erhart_16}
\newlabel{SSS:Dampers}{{II-C.3}{3}}
\@writefile{toc}{\contentsline {subsubsection}{\numberline {II-C.3}Dampers}{3}}
\@writefile{toc}{\contentsline {section}{\numberline {III}port-Hamiltonian modelling of robot teams}{3}}
\newlabel{sec:modelling}{{III}{3}}
\@writefile{lof}{\contentsline {figure}{\numberline {1}{\ignorespaces Cooperative system model represented as a set of interconnected energy storing elements, inertias and a spring.}}{3}}
\newlabel{FIG:model}{{1}{3}}
\@writefile{toc}{\contentsline {subsection}{\numberline {III-A}Cooperative system modelling}{3}}
\newlabel{EQ:pHDAE}{{15}{3}}
\citation{Schaft_13}
\@input{pics/blockscheme.aux}
\citation{99stramigioli}
\@writefile{toc}{\contentsline {subsection}{\numberline {III-B}Elimination of constraints}{4}}
\newlabel{EQ:annihilator}{{20}{4}}
\newlabel{EQ:constr_manifold}{{22}{4}}
\newlabel{EQ:epH}{{23}{4}}
\@writefile{toc}{\contentsline {section}{\numberline {IV}Control strategy for human-robot team interaction}{4}}
\newlabel{sec:control}{{IV}{4}}
\@writefile{toc}{\contentsline {subsection}{\numberline {IV-A}Energy shaping and damping injection for cooperative manipulation}{4}}
\newlabel{EQ:constrainedPHS}{{24}{4}}
\citation{Haddadin_14}
\citation{Wood_71}
\citation{Yoganandan_96}
\@writefile{lof}{\contentsline {figure}{\numberline {2}{\ignorespaces Block structure of the complete system: The Energy tank supplies energy to the Controller, while the human is energetically decoupled (indicated by dotted lines). The energy flow depends on the human input and is controlled via a Modulated Transformer\nobreakspace  {}($\mathbb  {MTF}$). The output of the transformer is the (modified) reference trajectory $T_d^0$. The wrench applied by the end-effectors is $W_i^0$ and the twists of the end-effectors are $T_i^{0}$.}}{5}}
\newlabel{FIG:BlockScheme}{{2}{5}}
\@writefile{lof}{\contentsline {figure}{\numberline {3}{\ignorespaces Interaction controller represented as a virtual structure of inertia, (variable) springs and (variable) dampers.}}{5}}
\newlabel{FIG:controller}{{3}{5}}
\@writefile{toc}{\contentsline {subsection}{\numberline {IV-B}Connection of the controller and the model}{5}}
\newlabel{EQ:pH_model_controller}{{27}{5}}
\@writefile{toc}{\contentsline {subsection}{\numberline {IV-C}Energy transfer control}{5}}
\newlabel{S:EnergyTanks}{{IV-C}{5}}
\newlabel{EQ:safety_limit}{{IV-C}{5}}
\citation{10stramigioli}
\citation{10stramigioli}
\newlabel{EQ:tank_input}{{29}{6}}
\newlabel{EQ:tankpower}{{30}{6}}
\newlabel{EQ:mtf}{{31}{6}}
\@writefile{toc}{\contentsline {subsection}{\numberline {IV-D}Energy shaped stiffness and damping}{6}}
\newlabel{SS:EnergyAdaptedStiffness}{{IV-D}{6}}
\@input{plots/wTank1.aux}
\@input{plots/Data1.aux}
\@input{plots/Data4.aux}
\@writefile{toc}{\contentsline {section}{\numberline {V}Results}{7}}
\newlabel{sec:results}{{V}{7}}
\@writefile{lot}{\contentsline {table}{\numberline {I}{\ignorespaces Controller parameters}}{7}}
\newlabel{TAB:Parameters}{{I}{7}}
\@writefile{toc}{\contentsline {section}{\numberline {VI}Conclusion}{7}}
\newlabel{sec:conclusion}{{VI}{7}}
\@writefile{lof}{\contentsline {figure}{\numberline {4}{\ignorespaces Simulation results. Top: commanded and actual object velocity. Middle: force applied on the object. Bottom: energy level of the tank with $\mathcal  {H}_t^{max} = 25\tmspace  +\thickmuskip {.2777em}\text  {J}$ and $\mathcal  {H}_t^{th} = 5\tmspace  +\thickmuskip {.2777em}\text  {J}$.}}{7}}
\newlabel{FIG:sim_res2}{{4}{7}}
\@writefile{lof}{\contentsline {figure}{\numberline {5}{\ignorespaces Experimental figure. The human and the robotic system share the workspace. The human teleoperates the robotic system by the hand motion.}}{7}}
\newlabel{FIG:experiment}{{5}{7}}
\bibstyle{ieeetran}
\bibdata{mybib}
\bibcite{05leeth}{1}
\bibcite{06antonelli}{2}
\bibcite{vanderSchaft_06}{3}
\bibcite{Franken_11}{4}
\bibcite{Geravand_16}{5}
\bibcite{98stramigioli}{6}
\bibcite{Vos_14}{7}
\bibcite{Ortega_99}{8}
\bibcite{08ortega}{9}
\bibcite{12franchi}{10}
\bibcite{Laffranchi_09}{11}
\bibcite{Tadele_14}{12}
\bibcite{Stramigioli_01}{13}
\bibcite{Erhart_16}{14}
\bibcite{Schaft_13}{15}
\bibcite{99stramigioli}{16}
\bibcite{Haddadin_14}{17}
\bibcite{Wood_71}{18}
\bibcite{Yoganandan_96}{19}
\bibcite{10stramigioli}{20}
\@writefile{lof}{\contentsline {figure}{\numberline {6}{\ignorespaces Experimental results. Top: commanded and actual object velocity. Middle: force applied on the object. Bottom: energy level of the tank with $\mathcal  {H}_t^{max} = 0.2\tmspace  +\thickmuskip {.2777em}\text  {J}$ and $\mathcal  {H}_t^{th} = 0.01\tmspace  +\thickmuskip {.2777em}\text  {J}$.}}{8}}
\newlabel{FIG:exp_res1}{{6}{8}}
\@writefile{lof}{\contentsline {figure}{\numberline {7}{\ignorespaces Experimental results. Top: commanded and actual object velocity. Middle: force applied on the object. Bottom: energy level of the tank with $\mathcal  {H}_t^{max} = 3.8\tmspace  +\thickmuskip {.2777em}\text  {J}$ and $\mathcal  {H}_t^{th} = 1\tmspace  +\thickmuskip {.2777em}\text  {J}$.}}{8}}
\newlabel{FIG:exp_res4}{{7}{8}}
\@writefile{toc}{\contentsline {section}{References}{8}}
